PWD c:\Users\AmrAbdel-Motaleb\OneDrive\Documents\GitHub\it-journey\lvl_0000\cv
INPUT C:\Users\AmrAbdel-Motaleb\AppData\Local\MiKTeX\miktex\data\le\pdftex\pdflatex.fmt
INPUT c:\Users\AmrAbdel-Motaleb\OneDrive\Documents\GitHub\it-journey\lvl_0000\cv\cv.tex
OUTPUT cv.log
INPUT C:\Users\AmrAbdel-Motaleb\AppData\Local\Programs\MiKTeX\tex\latex\base\article.cls
INPUT C:\Users\AmrAbdel-Motaleb\AppData\Local\Programs\MiKTeX\tex\latex\base\article.cls
INPUT C:\Users\AmrAbdel-Motaleb\AppData\Local\Programs\MiKTeX\tex\latex\base\article.cls
INPUT C:\Users\AmrAbdel-Motaleb\AppData\Local\Programs\MiKTeX\tex\latex\base\article.cls
INPUT C:\Users\AmrAbdel-Motaleb\AppData\Local\Programs\MiKTeX\tex\latex\base\article.cls
INPUT C:\Users\AmrAbdel-Motaleb\AppData\Local\Programs\MiKTeX\tex\latex\base\article.cls
INPUT C:\Users\AmrAbdel-Motaleb\AppData\Local\Programs\MiKTeX\tex\latex\base\article.cls
INPUT C:\Users\AmrAbdel-Motaleb\AppData\Local\Programs\MiKTeX\tex\latex\base\article.cls
INPUT C:\Users\AmrAbdel-Motaleb\AppData\Local\Programs\MiKTeX\tex\latex\base\article.cls
INPUT C:\Users\AmrAbdel-Motaleb\AppData\Local\Programs\MiKTeX\tex\latex\base\article.cls
INPUT C:\Users\AmrAbdel-Motaleb\AppData\Local\Programs\MiKTeX\tex\latex\base\article.cls
INPUT C:\Users\AmrAbdel-Motaleb\AppData\Local\Programs\MiKTeX\tex\latex\base\size11.clo
INPUT C:\Users\AmrAbdel-Motaleb\AppData\Local\Programs\MiKTeX\tex\latex\base\size11.clo
INPUT C:\Users\AmrAbdel-Motaleb\AppData\Local\Programs\MiKTeX\tex\latex\base\size11.clo
INPUT C:\Users\AmrAbdel-Motaleb\AppData\Local\Programs\MiKTeX\tex\latex\base\size11.clo
INPUT C:\Users\AmrAbdel-Motaleb\AppData\Local\Programs\MiKTeX\fonts\tfm\public\cm\cmr10.tfm
INPUT C:\Users\AmrAbdel-Motaleb\AppData\Local\Programs\MiKTeX\tex\latex\base\latexsym.sty
INPUT C:\Users\AmrAbdel-Motaleb\AppData\Local\Programs\MiKTeX\tex\latex\base\latexsym.sty
INPUT C:\Users\AmrAbdel-Motaleb\AppData\Local\Programs\MiKTeX\tex\latex\base\latexsym.sty
INPUT C:\Users\AmrAbdel-Motaleb\AppData\Local\Programs\MiKTeX\tex\latex\base\latexsym.sty
INPUT C:\Users\AmrAbdel-Motaleb\AppData\Local\Programs\MiKTeX\tex\latex\base\latexsym.sty
INPUT C:\Users\AmrAbdel-Motaleb\AppData\Local\Programs\MiKTeX\tex\latex\base\latexsym.sty
INPUT C:\Users\AmrAbdel-Motaleb\AppData\Local\Programs\MiKTeX\tex\latex\base\latexsym.sty
INPUT C:\Users\AmrAbdel-Motaleb\AppData\Local\Programs\MiKTeX\tex\latex\base\latexsym.sty
INPUT C:\Users\AmrAbdel-Motaleb\AppData\Local\Programs\MiKTeX\tex\latex\base\latexsym.sty
INPUT C:\Users\AmrAbdel-Motaleb\AppData\Local\Programs\MiKTeX\tex\latex\base\latexsym.sty
INPUT C:\Users\AmrAbdel-Motaleb\AppData\Local\Programs\MiKTeX\tex\latex\base\latexsym.sty
INPUT C:\Users\AmrAbdel-Motaleb\AppData\Local\Programs\MiKTeX\tex\latex\preprint\fullpage.sty
INPUT C:\Users\AmrAbdel-Motaleb\AppData\Local\Programs\MiKTeX\tex\latex\preprint\fullpage.sty
INPUT C:\Users\AmrAbdel-Motaleb\AppData\Local\Programs\MiKTeX\tex\latex\preprint\fullpage.sty
INPUT C:\Users\AmrAbdel-Motaleb\AppData\Local\Programs\MiKTeX\tex\latex\preprint\fullpage.sty
INPUT C:\Users\AmrAbdel-Motaleb\AppData\Local\Programs\MiKTeX\tex\latex\preprint\fullpage.sty
INPUT C:\Users\AmrAbdel-Motaleb\AppData\Local\Programs\MiKTeX\tex\latex\preprint\fullpage.sty
INPUT C:\Users\AmrAbdel-Motaleb\AppData\Local\Programs\MiKTeX\tex\latex\preprint\fullpage.sty
INPUT C:\Users\AmrAbdel-Motaleb\AppData\Local\Programs\MiKTeX\tex\latex\preprint\fullpage.sty
INPUT C:\Users\AmrAbdel-Motaleb\AppData\Local\Programs\MiKTeX\tex\latex\preprint\fullpage.sty
INPUT C:\Users\AmrAbdel-Motaleb\AppData\Local\Programs\MiKTeX\tex\latex\preprint\fullpage.sty
INPUT C:\Users\AmrAbdel-Motaleb\AppData\Local\Programs\MiKTeX\tex\latex\preprint\fullpage.sty
INPUT C:\Users\AmrAbdel-Motaleb\AppData\Local\Programs\MiKTeX\tex\latex\titlesec\titlesec.sty
INPUT C:\Users\AmrAbdel-Motaleb\AppData\Local\Programs\MiKTeX\tex\latex\titlesec\titlesec.sty
INPUT C:\Users\AmrAbdel-Motaleb\AppData\Local\Programs\MiKTeX\tex\latex\titlesec\titlesec.sty
INPUT C:\Users\AmrAbdel-Motaleb\AppData\Local\Programs\MiKTeX\tex\latex\titlesec\titlesec.sty
INPUT C:\Users\AmrAbdel-Motaleb\AppData\Local\Programs\MiKTeX\tex\latex\titlesec\titlesec.sty
INPUT C:\Users\AmrAbdel-Motaleb\AppData\Local\Programs\MiKTeX\tex\latex\titlesec\titlesec.sty
INPUT C:\Users\AmrAbdel-Motaleb\AppData\Local\Programs\MiKTeX\tex\latex\titlesec\titlesec.sty
INPUT C:\Users\AmrAbdel-Motaleb\AppData\Local\Programs\MiKTeX\tex\latex\titlesec\titlesec.sty
INPUT C:\Users\AmrAbdel-Motaleb\AppData\Local\Programs\MiKTeX\tex\latex\titlesec\titlesec.sty
INPUT C:\Users\AmrAbdel-Motaleb\AppData\Local\Programs\MiKTeX\tex\latex\titlesec\titlesec.sty
INPUT C:\Users\AmrAbdel-Motaleb\AppData\Local\Programs\MiKTeX\tex\latex\titlesec\titlesec.sty
INPUT C:\Users\AmrAbdel-Motaleb\AppData\Local\Programs\MiKTeX\tex\latex\marvosym\marvosym.sty
INPUT C:\Users\AmrAbdel-Motaleb\AppData\Local\Programs\MiKTeX\tex\latex\marvosym\marvosym.sty
INPUT C:\Users\AmrAbdel-Motaleb\AppData\Local\Programs\MiKTeX\tex\latex\marvosym\marvosym.sty
INPUT C:\Users\AmrAbdel-Motaleb\AppData\Local\Programs\MiKTeX\tex\latex\marvosym\marvosym.sty
INPUT C:\Users\AmrAbdel-Motaleb\AppData\Local\Programs\MiKTeX\tex\latex\marvosym\marvosym.sty
INPUT C:\Users\AmrAbdel-Motaleb\AppData\Local\Programs\MiKTeX\tex\latex\marvosym\marvosym.sty
INPUT C:\Users\AmrAbdel-Motaleb\AppData\Local\Programs\MiKTeX\tex\latex\marvosym\marvosym.sty
INPUT C:\Users\AmrAbdel-Motaleb\AppData\Local\Programs\MiKTeX\tex\latex\marvosym\marvosym.sty
INPUT C:\Users\AmrAbdel-Motaleb\AppData\Local\Programs\MiKTeX\tex\latex\marvosym\marvosym.sty
INPUT C:\Users\AmrAbdel-Motaleb\AppData\Local\Programs\MiKTeX\tex\latex\marvosym\marvosym.sty
INPUT C:\Users\AmrAbdel-Motaleb\AppData\Local\Programs\MiKTeX\tex\latex\marvosym\marvosym.sty
INPUT C:\Users\AmrAbdel-Motaleb\AppData\Local\Programs\MiKTeX\tex\latex\graphics\color.sty
INPUT C:\Users\AmrAbdel-Motaleb\AppData\Local\Programs\MiKTeX\tex\latex\graphics\color.sty
INPUT C:\Users\AmrAbdel-Motaleb\AppData\Local\Programs\MiKTeX\tex\latex\graphics\color.sty
INPUT C:\Users\AmrAbdel-Motaleb\AppData\Local\Programs\MiKTeX\tex\latex\graphics\color.sty
INPUT C:\Users\AmrAbdel-Motaleb\AppData\Local\Programs\MiKTeX\tex\latex\graphics\color.sty
INPUT C:\Users\AmrAbdel-Motaleb\AppData\Local\Programs\MiKTeX\tex\latex\graphics\color.sty
INPUT C:\Users\AmrAbdel-Motaleb\AppData\Local\Programs\MiKTeX\tex\latex\graphics\color.sty
INPUT C:\Users\AmrAbdel-Motaleb\AppData\Local\Programs\MiKTeX\tex\latex\graphics\color.sty
INPUT C:\Users\AmrAbdel-Motaleb\AppData\Local\Programs\MiKTeX\tex\latex\graphics\color.sty
INPUT C:\Users\AmrAbdel-Motaleb\AppData\Local\Programs\MiKTeX\tex\latex\graphics\color.sty
INPUT C:\Users\AmrAbdel-Motaleb\AppData\Local\Programs\MiKTeX\tex\latex\graphics\color.sty
INPUT C:\Users\AmrAbdel-Motaleb\AppData\Local\Programs\MiKTeX\tex\latex\graphics-cfg\color.cfg
INPUT C:\Users\AmrAbdel-Motaleb\AppData\Local\Programs\MiKTeX\tex\latex\graphics-cfg\color.cfg
INPUT C:\Users\AmrAbdel-Motaleb\AppData\Local\Programs\MiKTeX\tex\latex\graphics-cfg\color.cfg
INPUT C:\Users\AmrAbdel-Motaleb\AppData\Local\Programs\MiKTeX\tex\latex\graphics-cfg\color.cfg
INPUT C:\Users\AmrAbdel-Motaleb\AppData\Local\Programs\MiKTeX\tex\latex\graphics-def\pdftex.def
INPUT C:\Users\AmrAbdel-Motaleb\AppData\Local\Programs\MiKTeX\tex\latex\graphics-def\pdftex.def
INPUT C:\Users\AmrAbdel-Motaleb\AppData\Local\Programs\MiKTeX\tex\latex\graphics-def\pdftex.def
INPUT C:\Users\AmrAbdel-Motaleb\AppData\Local\Programs\MiKTeX\tex\latex\graphics-def\pdftex.def
INPUT C:\Users\AmrAbdel-Motaleb\AppData\Local\Programs\MiKTeX\tex\latex\graphics\dvipsnam.def
INPUT C:\Users\AmrAbdel-Motaleb\AppData\Local\Programs\MiKTeX\tex\latex\graphics\dvipsnam.def
INPUT C:\Users\AmrAbdel-Motaleb\AppData\Local\Programs\MiKTeX\tex\latex\graphics\dvipsnam.def
INPUT C:\Users\AmrAbdel-Motaleb\AppData\Local\Programs\MiKTeX\tex\latex\graphics\dvipsnam.def
INPUT C:\Users\AmrAbdel-Motaleb\AppData\Local\Programs\MiKTeX\tex\latex\tools\verbatim.sty
INPUT C:\Users\AmrAbdel-Motaleb\AppData\Local\Programs\MiKTeX\tex\latex\tools\verbatim.sty
INPUT C:\Users\AmrAbdel-Motaleb\AppData\Local\Programs\MiKTeX\tex\latex\tools\verbatim.sty
INPUT C:\Users\AmrAbdel-Motaleb\AppData\Local\Programs\MiKTeX\tex\latex\tools\verbatim.sty
INPUT C:\Users\AmrAbdel-Motaleb\AppData\Local\Programs\MiKTeX\tex\latex\tools\verbatim.sty
INPUT C:\Users\AmrAbdel-Motaleb\AppData\Local\Programs\MiKTeX\tex\latex\tools\verbatim.sty
INPUT C:\Users\AmrAbdel-Motaleb\AppData\Local\Programs\MiKTeX\tex\latex\tools\verbatim.sty
INPUT C:\Users\AmrAbdel-Motaleb\AppData\Local\Programs\MiKTeX\tex\latex\tools\verbatim.sty
INPUT C:\Users\AmrAbdel-Motaleb\AppData\Local\Programs\MiKTeX\tex\latex\tools\verbatim.sty
INPUT C:\Users\AmrAbdel-Motaleb\AppData\Local\Programs\MiKTeX\tex\latex\tools\verbatim.sty
INPUT C:\Users\AmrAbdel-Motaleb\AppData\Local\Programs\MiKTeX\tex\latex\tools\verbatim.sty
INPUT C:\Users\AmrAbdel-Motaleb\AppData\Local\Programs\MiKTeX\tex\latex\enumitem\enumitem.sty
INPUT C:\Users\AmrAbdel-Motaleb\AppData\Local\Programs\MiKTeX\tex\latex\enumitem\enumitem.sty
INPUT C:\Users\AmrAbdel-Motaleb\AppData\Local\Programs\MiKTeX\tex\latex\enumitem\enumitem.sty
INPUT C:\Users\AmrAbdel-Motaleb\AppData\Local\Programs\MiKTeX\tex\latex\enumitem\enumitem.sty
INPUT C:\Users\AmrAbdel-Motaleb\AppData\Local\Programs\MiKTeX\tex\latex\enumitem\enumitem.sty
INPUT C:\Users\AmrAbdel-Motaleb\AppData\Local\Programs\MiKTeX\tex\latex\enumitem\enumitem.sty
INPUT C:\Users\AmrAbdel-Motaleb\AppData\Local\Programs\MiKTeX\tex\latex\enumitem\enumitem.sty
INPUT C:\Users\AmrAbdel-Motaleb\AppData\Local\Programs\MiKTeX\tex\latex\enumitem\enumitem.sty
INPUT C:\Users\AmrAbdel-Motaleb\AppData\Local\Programs\MiKTeX\tex\latex\enumitem\enumitem.sty
INPUT C:\Users\AmrAbdel-Motaleb\AppData\Local\Programs\MiKTeX\tex\latex\enumitem\enumitem.sty
INPUT C:\Users\AmrAbdel-Motaleb\AppData\Local\Programs\MiKTeX\tex\latex\enumitem\enumitem.sty
INPUT C:\Users\AmrAbdel-Motaleb\AppData\Local\Programs\MiKTeX\tex\latex\hyperref\hyperref.sty
INPUT C:\Users\AmrAbdel-Motaleb\AppData\Local\Programs\MiKTeX\tex\latex\hyperref\hyperref.sty
INPUT C:\Users\AmrAbdel-Motaleb\AppData\Local\Programs\MiKTeX\tex\latex\hyperref\hyperref.sty
INPUT C:\Users\AmrAbdel-Motaleb\AppData\Local\Programs\MiKTeX\tex\latex\hyperref\hyperref.sty
INPUT C:\Users\AmrAbdel-Motaleb\AppData\Local\Programs\MiKTeX\tex\latex\hyperref\hyperref.sty
INPUT C:\Users\AmrAbdel-Motaleb\AppData\Local\Programs\MiKTeX\tex\latex\hyperref\hyperref.sty
INPUT C:\Users\AmrAbdel-Motaleb\AppData\Local\Programs\MiKTeX\tex\latex\hyperref\hyperref.sty
INPUT C:\Users\AmrAbdel-Motaleb\AppData\Local\Programs\MiKTeX\tex\latex\hyperref\hyperref.sty
INPUT C:\Users\AmrAbdel-Motaleb\AppData\Local\Programs\MiKTeX\tex\latex\hyperref\hyperref.sty
INPUT C:\Users\AmrAbdel-Motaleb\AppData\Local\Programs\MiKTeX\tex\latex\hyperref\hyperref.sty
INPUT C:\Users\AmrAbdel-Motaleb\AppData\Local\Programs\MiKTeX\tex\latex\hyperref\hyperref.sty
INPUT C:\Users\AmrAbdel-Motaleb\AppData\Local\Programs\MiKTeX\tex\generic\ltxcmds\ltxcmds.sty
INPUT C:\Users\AmrAbdel-Motaleb\AppData\Local\Programs\MiKTeX\tex\generic\ltxcmds\ltxcmds.sty
INPUT C:\Users\AmrAbdel-Motaleb\AppData\Local\Programs\MiKTeX\tex\generic\ltxcmds\ltxcmds.sty
INPUT C:\Users\AmrAbdel-Motaleb\AppData\Local\Programs\MiKTeX\tex\generic\ltxcmds\ltxcmds.sty
INPUT C:\Users\AmrAbdel-Motaleb\AppData\Local\Programs\MiKTeX\tex\generic\ltxcmds\ltxcmds.sty
INPUT C:\Users\AmrAbdel-Motaleb\AppData\Local\Programs\MiKTeX\tex\generic\ltxcmds\ltxcmds.sty
INPUT C:\Users\AmrAbdel-Motaleb\AppData\Local\Programs\MiKTeX\tex\generic\ltxcmds\ltxcmds.sty
INPUT C:\Users\AmrAbdel-Motaleb\AppData\Local\Programs\MiKTeX\tex\generic\ltxcmds\ltxcmds.sty
INPUT C:\Users\AmrAbdel-Motaleb\AppData\Local\Programs\MiKTeX\tex\generic\ltxcmds\ltxcmds.sty
INPUT C:\Users\AmrAbdel-Motaleb\AppData\Local\Programs\MiKTeX\tex\generic\ltxcmds\ltxcmds.sty
INPUT C:\Users\AmrAbdel-Motaleb\AppData\Local\Programs\MiKTeX\tex\generic\ltxcmds\ltxcmds.sty
INPUT C:\Users\AmrAbdel-Motaleb\AppData\Local\Programs\MiKTeX\tex\generic\iftex\iftex.sty
INPUT C:\Users\AmrAbdel-Motaleb\AppData\Local\Programs\MiKTeX\tex\generic\iftex\iftex.sty
INPUT C:\Users\AmrAbdel-Motaleb\AppData\Local\Programs\MiKTeX\tex\generic\iftex\iftex.sty
INPUT C:\Users\AmrAbdel-Motaleb\AppData\Local\Programs\MiKTeX\tex\generic\iftex\iftex.sty
INPUT C:\Users\AmrAbdel-Motaleb\AppData\Local\Programs\MiKTeX\tex\generic\iftex\iftex.sty
INPUT C:\Users\AmrAbdel-Motaleb\AppData\Local\Programs\MiKTeX\tex\generic\iftex\iftex.sty
INPUT C:\Users\AmrAbdel-Motaleb\AppData\Local\Programs\MiKTeX\tex\generic\iftex\iftex.sty
INPUT C:\Users\AmrAbdel-Motaleb\AppData\Local\Programs\MiKTeX\tex\generic\iftex\iftex.sty
INPUT C:\Users\AmrAbdel-Motaleb\AppData\Local\Programs\MiKTeX\tex\generic\iftex\iftex.sty
INPUT C:\Users\AmrAbdel-Motaleb\AppData\Local\Programs\MiKTeX\tex\generic\iftex\iftex.sty
INPUT C:\Users\AmrAbdel-Motaleb\AppData\Local\Programs\MiKTeX\tex\generic\iftex\iftex.sty
INPUT C:\Users\AmrAbdel-Motaleb\AppData\Local\Programs\MiKTeX\tex\generic\pdftexcmds\pdftexcmds.sty
INPUT C:\Users\AmrAbdel-Motaleb\AppData\Local\Programs\MiKTeX\tex\generic\pdftexcmds\pdftexcmds.sty
INPUT C:\Users\AmrAbdel-Motaleb\AppData\Local\Programs\MiKTeX\tex\generic\pdftexcmds\pdftexcmds.sty
INPUT C:\Users\AmrAbdel-Motaleb\AppData\Local\Programs\MiKTeX\tex\generic\pdftexcmds\pdftexcmds.sty
INPUT C:\Users\AmrAbdel-Motaleb\AppData\Local\Programs\MiKTeX\tex\generic\pdftexcmds\pdftexcmds.sty
INPUT C:\Users\AmrAbdel-Motaleb\AppData\Local\Programs\MiKTeX\tex\generic\pdftexcmds\pdftexcmds.sty
INPUT C:\Users\AmrAbdel-Motaleb\AppData\Local\Programs\MiKTeX\tex\generic\pdftexcmds\pdftexcmds.sty
INPUT C:\Users\AmrAbdel-Motaleb\AppData\Local\Programs\MiKTeX\tex\generic\pdftexcmds\pdftexcmds.sty
INPUT C:\Users\AmrAbdel-Motaleb\AppData\Local\Programs\MiKTeX\tex\generic\pdftexcmds\pdftexcmds.sty
INPUT C:\Users\AmrAbdel-Motaleb\AppData\Local\Programs\MiKTeX\tex\generic\pdftexcmds\pdftexcmds.sty
INPUT C:\Users\AmrAbdel-Motaleb\AppData\Local\Programs\MiKTeX\tex\generic\pdftexcmds\pdftexcmds.sty
INPUT C:\Users\AmrAbdel-Motaleb\AppData\Local\Programs\MiKTeX\tex\generic\infwarerr\infwarerr.sty
INPUT C:\Users\AmrAbdel-Motaleb\AppData\Local\Programs\MiKTeX\tex\generic\infwarerr\infwarerr.sty
INPUT C:\Users\AmrAbdel-Motaleb\AppData\Local\Programs\MiKTeX\tex\generic\infwarerr\infwarerr.sty
INPUT C:\Users\AmrAbdel-Motaleb\AppData\Local\Programs\MiKTeX\tex\generic\infwarerr\infwarerr.sty
INPUT C:\Users\AmrAbdel-Motaleb\AppData\Local\Programs\MiKTeX\tex\generic\infwarerr\infwarerr.sty
INPUT C:\Users\AmrAbdel-Motaleb\AppData\Local\Programs\MiKTeX\tex\generic\infwarerr\infwarerr.sty
INPUT C:\Users\AmrAbdel-Motaleb\AppData\Local\Programs\MiKTeX\tex\generic\infwarerr\infwarerr.sty
INPUT C:\Users\AmrAbdel-Motaleb\AppData\Local\Programs\MiKTeX\tex\generic\infwarerr\infwarerr.sty
INPUT C:\Users\AmrAbdel-Motaleb\AppData\Local\Programs\MiKTeX\tex\generic\infwarerr\infwarerr.sty
INPUT C:\Users\AmrAbdel-Motaleb\AppData\Local\Programs\MiKTeX\tex\generic\infwarerr\infwarerr.sty
INPUT C:\Users\AmrAbdel-Motaleb\AppData\Local\Programs\MiKTeX\tex\generic\infwarerr\infwarerr.sty
INPUT C:\Users\AmrAbdel-Motaleb\AppData\Local\Programs\MiKTeX\tex\generic\iftex\iftex.sty
INPUT C:\Users\AmrAbdel-Motaleb\AppData\Local\Programs\MiKTeX\tex\generic\ltxcmds\ltxcmds.sty
INPUT C:\Users\AmrAbdel-Motaleb\AppData\Local\Programs\MiKTeX\tex\generic\infwarerr\infwarerr.sty
INPUT C:\Users\AmrAbdel-Motaleb\AppData\Local\Programs\MiKTeX\tex\latex\graphics\keyval.sty
INPUT C:\Users\AmrAbdel-Motaleb\AppData\Local\Programs\MiKTeX\tex\latex\graphics\keyval.sty
INPUT C:\Users\AmrAbdel-Motaleb\AppData\Local\Programs\MiKTeX\tex\latex\graphics\keyval.sty
INPUT C:\Users\AmrAbdel-Motaleb\AppData\Local\Programs\MiKTeX\tex\latex\graphics\keyval.sty
INPUT C:\Users\AmrAbdel-Motaleb\AppData\Local\Programs\MiKTeX\tex\latex\graphics\keyval.sty
INPUT C:\Users\AmrAbdel-Motaleb\AppData\Local\Programs\MiKTeX\tex\latex\graphics\keyval.sty
INPUT C:\Users\AmrAbdel-Motaleb\AppData\Local\Programs\MiKTeX\tex\latex\graphics\keyval.sty
INPUT C:\Users\AmrAbdel-Motaleb\AppData\Local\Programs\MiKTeX\tex\latex\graphics\keyval.sty
INPUT C:\Users\AmrAbdel-Motaleb\AppData\Local\Programs\MiKTeX\tex\latex\graphics\keyval.sty
INPUT C:\Users\AmrAbdel-Motaleb\AppData\Local\Programs\MiKTeX\tex\latex\graphics\keyval.sty
INPUT C:\Users\AmrAbdel-Motaleb\AppData\Local\Programs\MiKTeX\tex\latex\graphics\keyval.sty
INPUT C:\Users\AmrAbdel-Motaleb\AppData\Local\Programs\MiKTeX\tex\generic\kvsetkeys\kvsetkeys.sty
INPUT C:\Users\AmrAbdel-Motaleb\AppData\Local\Programs\MiKTeX\tex\generic\kvsetkeys\kvsetkeys.sty
INPUT C:\Users\AmrAbdel-Motaleb\AppData\Local\Programs\MiKTeX\tex\generic\kvsetkeys\kvsetkeys.sty
INPUT C:\Users\AmrAbdel-Motaleb\AppData\Local\Programs\MiKTeX\tex\generic\kvsetkeys\kvsetkeys.sty
INPUT C:\Users\AmrAbdel-Motaleb\AppData\Local\Programs\MiKTeX\tex\generic\kvsetkeys\kvsetkeys.sty
INPUT C:\Users\AmrAbdel-Motaleb\AppData\Local\Programs\MiKTeX\tex\generic\kvsetkeys\kvsetkeys.sty
INPUT C:\Users\AmrAbdel-Motaleb\AppData\Local\Programs\MiKTeX\tex\generic\kvsetkeys\kvsetkeys.sty
INPUT C:\Users\AmrAbdel-Motaleb\AppData\Local\Programs\MiKTeX\tex\generic\kvsetkeys\kvsetkeys.sty
INPUT C:\Users\AmrAbdel-Motaleb\AppData\Local\Programs\MiKTeX\tex\generic\kvsetkeys\kvsetkeys.sty
INPUT C:\Users\AmrAbdel-Motaleb\AppData\Local\Programs\MiKTeX\tex\generic\kvsetkeys\kvsetkeys.sty
INPUT C:\Users\AmrAbdel-Motaleb\AppData\Local\Programs\MiKTeX\tex\generic\kvsetkeys\kvsetkeys.sty
INPUT C:\Users\AmrAbdel-Motaleb\AppData\Local\Programs\MiKTeX\tex\generic\kvdefinekeys\kvdefinekeys.sty
INPUT C:\Users\AmrAbdel-Motaleb\AppData\Local\Programs\MiKTeX\tex\generic\kvdefinekeys\kvdefinekeys.sty
INPUT C:\Users\AmrAbdel-Motaleb\AppData\Local\Programs\MiKTeX\tex\generic\kvdefinekeys\kvdefinekeys.sty
INPUT C:\Users\AmrAbdel-Motaleb\AppData\Local\Programs\MiKTeX\tex\generic\kvdefinekeys\kvdefinekeys.sty
INPUT C:\Users\AmrAbdel-Motaleb\AppData\Local\Programs\MiKTeX\tex\generic\kvdefinekeys\kvdefinekeys.sty
INPUT C:\Users\AmrAbdel-Motaleb\AppData\Local\Programs\MiKTeX\tex\generic\kvdefinekeys\kvdefinekeys.sty
INPUT C:\Users\AmrAbdel-Motaleb\AppData\Local\Programs\MiKTeX\tex\generic\kvdefinekeys\kvdefinekeys.sty
INPUT C:\Users\AmrAbdel-Motaleb\AppData\Local\Programs\MiKTeX\tex\generic\kvdefinekeys\kvdefinekeys.sty
INPUT C:\Users\AmrAbdel-Motaleb\AppData\Local\Programs\MiKTeX\tex\generic\kvdefinekeys\kvdefinekeys.sty
INPUT C:\Users\AmrAbdel-Motaleb\AppData\Local\Programs\MiKTeX\tex\generic\kvdefinekeys\kvdefinekeys.sty
INPUT C:\Users\AmrAbdel-Motaleb\AppData\Local\Programs\MiKTeX\tex\generic\kvdefinekeys\kvdefinekeys.sty
INPUT C:\Users\AmrAbdel-Motaleb\AppData\Local\Programs\MiKTeX\tex\generic\pdfescape\pdfescape.sty
INPUT C:\Users\AmrAbdel-Motaleb\AppData\Local\Programs\MiKTeX\tex\generic\pdfescape\pdfescape.sty
INPUT C:\Users\AmrAbdel-Motaleb\AppData\Local\Programs\MiKTeX\tex\generic\pdfescape\pdfescape.sty
INPUT C:\Users\AmrAbdel-Motaleb\AppData\Local\Programs\MiKTeX\tex\generic\pdfescape\pdfescape.sty
INPUT C:\Users\AmrAbdel-Motaleb\AppData\Local\Programs\MiKTeX\tex\generic\pdfescape\pdfescape.sty
INPUT C:\Users\AmrAbdel-Motaleb\AppData\Local\Programs\MiKTeX\tex\generic\pdfescape\pdfescape.sty
INPUT C:\Users\AmrAbdel-Motaleb\AppData\Local\Programs\MiKTeX\tex\generic\pdfescape\pdfescape.sty
INPUT C:\Users\AmrAbdel-Motaleb\AppData\Local\Programs\MiKTeX\tex\generic\pdfescape\pdfescape.sty
INPUT C:\Users\AmrAbdel-Motaleb\AppData\Local\Programs\MiKTeX\tex\generic\pdfescape\pdfescape.sty
INPUT C:\Users\AmrAbdel-Motaleb\AppData\Local\Programs\MiKTeX\tex\generic\pdfescape\pdfescape.sty
INPUT C:\Users\AmrAbdel-Motaleb\AppData\Local\Programs\MiKTeX\tex\generic\pdfescape\pdfescape.sty
INPUT C:\Users\AmrAbdel-Motaleb\AppData\Local\Programs\MiKTeX\tex\generic\ltxcmds\ltxcmds.sty
INPUT C:\Users\AmrAbdel-Motaleb\AppData\Local\Programs\MiKTeX\tex\generic\pdftexcmds\pdftexcmds.sty
INPUT C:\Users\AmrAbdel-Motaleb\AppData\Local\Programs\MiKTeX\tex\latex\hycolor\hycolor.sty
INPUT C:\Users\AmrAbdel-Motaleb\AppData\Local\Programs\MiKTeX\tex\latex\hycolor\hycolor.sty
INPUT C:\Users\AmrAbdel-Motaleb\AppData\Local\Programs\MiKTeX\tex\latex\hycolor\hycolor.sty
INPUT C:\Users\AmrAbdel-Motaleb\AppData\Local\Programs\MiKTeX\tex\latex\hycolor\hycolor.sty
INPUT C:\Users\AmrAbdel-Motaleb\AppData\Local\Programs\MiKTeX\tex\latex\hycolor\hycolor.sty
INPUT C:\Users\AmrAbdel-Motaleb\AppData\Local\Programs\MiKTeX\tex\latex\hycolor\hycolor.sty
INPUT C:\Users\AmrAbdel-Motaleb\AppData\Local\Programs\MiKTeX\tex\latex\hycolor\hycolor.sty
INPUT C:\Users\AmrAbdel-Motaleb\AppData\Local\Programs\MiKTeX\tex\latex\hycolor\hycolor.sty
INPUT C:\Users\AmrAbdel-Motaleb\AppData\Local\Programs\MiKTeX\tex\latex\hycolor\hycolor.sty
INPUT C:\Users\AmrAbdel-Motaleb\AppData\Local\Programs\MiKTeX\tex\latex\hycolor\hycolor.sty
INPUT C:\Users\AmrAbdel-Motaleb\AppData\Local\Programs\MiKTeX\tex\latex\hycolor\hycolor.sty
INPUT C:\Users\AmrAbdel-Motaleb\AppData\Local\Programs\MiKTeX\tex\latex\letltxmacro\letltxmacro.sty
INPUT C:\Users\AmrAbdel-Motaleb\AppData\Local\Programs\MiKTeX\tex\latex\letltxmacro\letltxmacro.sty
INPUT C:\Users\AmrAbdel-Motaleb\AppData\Local\Programs\MiKTeX\tex\latex\letltxmacro\letltxmacro.sty
INPUT C:\Users\AmrAbdel-Motaleb\AppData\Local\Programs\MiKTeX\tex\latex\letltxmacro\letltxmacro.sty
INPUT C:\Users\AmrAbdel-Motaleb\AppData\Local\Programs\MiKTeX\tex\latex\letltxmacro\letltxmacro.sty
INPUT C:\Users\AmrAbdel-Motaleb\AppData\Local\Programs\MiKTeX\tex\latex\letltxmacro\letltxmacro.sty
INPUT C:\Users\AmrAbdel-Motaleb\AppData\Local\Programs\MiKTeX\tex\latex\letltxmacro\letltxmacro.sty
INPUT C:\Users\AmrAbdel-Motaleb\AppData\Local\Programs\MiKTeX\tex\latex\letltxmacro\letltxmacro.sty
INPUT C:\Users\AmrAbdel-Motaleb\AppData\Local\Programs\MiKTeX\tex\latex\letltxmacro\letltxmacro.sty
INPUT C:\Users\AmrAbdel-Motaleb\AppData\Local\Programs\MiKTeX\tex\latex\letltxmacro\letltxmacro.sty
INPUT C:\Users\AmrAbdel-Motaleb\AppData\Local\Programs\MiKTeX\tex\latex\letltxmacro\letltxmacro.sty
INPUT C:\Users\AmrAbdel-Motaleb\AppData\Local\Programs\MiKTeX\tex\latex\auxhook\auxhook.sty
INPUT C:\Users\AmrAbdel-Motaleb\AppData\Local\Programs\MiKTeX\tex\latex\auxhook\auxhook.sty
INPUT C:\Users\AmrAbdel-Motaleb\AppData\Local\Programs\MiKTeX\tex\latex\auxhook\auxhook.sty
INPUT C:\Users\AmrAbdel-Motaleb\AppData\Local\Programs\MiKTeX\tex\latex\auxhook\auxhook.sty
INPUT C:\Users\AmrAbdel-Motaleb\AppData\Local\Programs\MiKTeX\tex\latex\auxhook\auxhook.sty
INPUT C:\Users\AmrAbdel-Motaleb\AppData\Local\Programs\MiKTeX\tex\latex\auxhook\auxhook.sty
INPUT C:\Users\AmrAbdel-Motaleb\AppData\Local\Programs\MiKTeX\tex\latex\auxhook\auxhook.sty
INPUT C:\Users\AmrAbdel-Motaleb\AppData\Local\Programs\MiKTeX\tex\latex\auxhook\auxhook.sty
INPUT C:\Users\AmrAbdel-Motaleb\AppData\Local\Programs\MiKTeX\tex\latex\auxhook\auxhook.sty
INPUT C:\Users\AmrAbdel-Motaleb\AppData\Local\Programs\MiKTeX\tex\latex\auxhook\auxhook.sty
INPUT C:\Users\AmrAbdel-Motaleb\AppData\Local\Programs\MiKTeX\tex\latex\auxhook\auxhook.sty
INPUT C:\Users\AmrAbdel-Motaleb\AppData\Local\Programs\MiKTeX\tex\latex\kvoptions\kvoptions.sty
INPUT C:\Users\AmrAbdel-Motaleb\AppData\Local\Programs\MiKTeX\tex\latex\kvoptions\kvoptions.sty
INPUT C:\Users\AmrAbdel-Motaleb\AppData\Local\Programs\MiKTeX\tex\latex\kvoptions\kvoptions.sty
INPUT C:\Users\AmrAbdel-Motaleb\AppData\Local\Programs\MiKTeX\tex\latex\kvoptions\kvoptions.sty
INPUT C:\Users\AmrAbdel-Motaleb\AppData\Local\Programs\MiKTeX\tex\latex\kvoptions\kvoptions.sty
INPUT C:\Users\AmrAbdel-Motaleb\AppData\Local\Programs\MiKTeX\tex\latex\kvoptions\kvoptions.sty
INPUT C:\Users\AmrAbdel-Motaleb\AppData\Local\Programs\MiKTeX\tex\latex\kvoptions\kvoptions.sty
INPUT C:\Users\AmrAbdel-Motaleb\AppData\Local\Programs\MiKTeX\tex\latex\kvoptions\kvoptions.sty
INPUT C:\Users\AmrAbdel-Motaleb\AppData\Local\Programs\MiKTeX\tex\latex\kvoptions\kvoptions.sty
INPUT C:\Users\AmrAbdel-Motaleb\AppData\Local\Programs\MiKTeX\tex\latex\kvoptions\kvoptions.sty
INPUT C:\Users\AmrAbdel-Motaleb\AppData\Local\Programs\MiKTeX\tex\latex\kvoptions\kvoptions.sty
INPUT C:\Users\AmrAbdel-Motaleb\AppData\Local\Programs\MiKTeX\tex\generic\ltxcmds\ltxcmds.sty
INPUT C:\Users\AmrAbdel-Motaleb\AppData\Local\Programs\MiKTeX\tex\generic\kvsetkeys\kvsetkeys.sty
INPUT C:\Users\AmrAbdel-Motaleb\AppData\Local\Programs\MiKTeX\tex\latex\hyperref\pd1enc.def
INPUT C:\Users\AmrAbdel-Motaleb\AppData\Local\Programs\MiKTeX\tex\latex\hyperref\pd1enc.def
INPUT C:\Users\AmrAbdel-Motaleb\AppData\Local\Programs\MiKTeX\tex\latex\hyperref\pd1enc.def
INPUT C:\Users\AmrAbdel-Motaleb\AppData\Local\Programs\MiKTeX\tex\latex\hyperref\pd1enc.def
INPUT C:\Users\AmrAbdel-Motaleb\AppData\Local\Programs\MiKTeX\tex\latex\hyperref\hyperref-langpatches.def
INPUT C:\Users\AmrAbdel-Motaleb\AppData\Local\Programs\MiKTeX\tex\latex\hyperref\hyperref-langpatches.def
INPUT C:\Users\AmrAbdel-Motaleb\AppData\Local\Programs\MiKTeX\tex\latex\hyperref\hyperref-langpatches.def
INPUT C:\Users\AmrAbdel-Motaleb\AppData\Local\Programs\MiKTeX\tex\latex\hyperref\hyperref-langpatches.def
INPUT C:\Users\AmrAbdel-Motaleb\AppData\Local\Programs\MiKTeX\tex\generic\intcalc\intcalc.sty
INPUT C:\Users\AmrAbdel-Motaleb\AppData\Local\Programs\MiKTeX\tex\generic\intcalc\intcalc.sty
INPUT C:\Users\AmrAbdel-Motaleb\AppData\Local\Programs\MiKTeX\tex\generic\intcalc\intcalc.sty
INPUT C:\Users\AmrAbdel-Motaleb\AppData\Local\Programs\MiKTeX\tex\generic\intcalc\intcalc.sty
INPUT C:\Users\AmrAbdel-Motaleb\AppData\Local\Programs\MiKTeX\tex\generic\intcalc\intcalc.sty
INPUT C:\Users\AmrAbdel-Motaleb\AppData\Local\Programs\MiKTeX\tex\generic\intcalc\intcalc.sty
INPUT C:\Users\AmrAbdel-Motaleb\AppData\Local\Programs\MiKTeX\tex\generic\intcalc\intcalc.sty
INPUT C:\Users\AmrAbdel-Motaleb\AppData\Local\Programs\MiKTeX\tex\generic\intcalc\intcalc.sty
INPUT C:\Users\AmrAbdel-Motaleb\AppData\Local\Programs\MiKTeX\tex\generic\intcalc\intcalc.sty
INPUT C:\Users\AmrAbdel-Motaleb\AppData\Local\Programs\MiKTeX\tex\generic\intcalc\intcalc.sty
INPUT C:\Users\AmrAbdel-Motaleb\AppData\Local\Programs\MiKTeX\tex\generic\intcalc\intcalc.sty
INPUT C:\Users\AmrAbdel-Motaleb\AppData\Local\Programs\MiKTeX\tex\generic\etexcmds\etexcmds.sty
INPUT C:\Users\AmrAbdel-Motaleb\AppData\Local\Programs\MiKTeX\tex\generic\etexcmds\etexcmds.sty
INPUT C:\Users\AmrAbdel-Motaleb\AppData\Local\Programs\MiKTeX\tex\generic\etexcmds\etexcmds.sty
INPUT C:\Users\AmrAbdel-Motaleb\AppData\Local\Programs\MiKTeX\tex\generic\etexcmds\etexcmds.sty
INPUT C:\Users\AmrAbdel-Motaleb\AppData\Local\Programs\MiKTeX\tex\generic\etexcmds\etexcmds.sty
INPUT C:\Users\AmrAbdel-Motaleb\AppData\Local\Programs\MiKTeX\tex\generic\etexcmds\etexcmds.sty
INPUT C:\Users\AmrAbdel-Motaleb\AppData\Local\Programs\MiKTeX\tex\generic\etexcmds\etexcmds.sty
INPUT C:\Users\AmrAbdel-Motaleb\AppData\Local\Programs\MiKTeX\tex\generic\etexcmds\etexcmds.sty
INPUT C:\Users\AmrAbdel-Motaleb\AppData\Local\Programs\MiKTeX\tex\generic\etexcmds\etexcmds.sty
INPUT C:\Users\AmrAbdel-Motaleb\AppData\Local\Programs\MiKTeX\tex\generic\etexcmds\etexcmds.sty
INPUT C:\Users\AmrAbdel-Motaleb\AppData\Local\Programs\MiKTeX\tex\generic\etexcmds\etexcmds.sty
INPUT C:\Users\AmrAbdel-Motaleb\AppData\Local\Programs\MiKTeX\tex\generic\infwarerr\infwarerr.sty
INPUT C:\Users\AmrAbdel-Motaleb\AppData\Local\Programs\MiKTeX\tex\generic\iftex\iftex.sty
INPUT C:\Users\AmrAbdel-Motaleb\AppData\Local\Programs\MiKTeX\tex\latex\hyperref\puenc.def
INPUT C:\Users\AmrAbdel-Motaleb\AppData\Local\Programs\MiKTeX\tex\latex\hyperref\puenc.def
INPUT C:\Users\AmrAbdel-Motaleb\AppData\Local\Programs\MiKTeX\tex\latex\hyperref\puenc.def
INPUT C:\Users\AmrAbdel-Motaleb\AppData\Local\Programs\MiKTeX\tex\latex\hyperref\puenc.def
INPUT C:\Users\AmrAbdel-Motaleb\AppData\Local\Programs\MiKTeX\tex\latex\url\url.sty
INPUT C:\Users\AmrAbdel-Motaleb\AppData\Local\Programs\MiKTeX\tex\latex\url\url.sty
INPUT C:\Users\AmrAbdel-Motaleb\AppData\Local\Programs\MiKTeX\tex\latex\url\url.sty
INPUT C:\Users\AmrAbdel-Motaleb\AppData\Local\Programs\MiKTeX\tex\latex\url\url.sty
INPUT C:\Users\AmrAbdel-Motaleb\AppData\Local\Programs\MiKTeX\tex\latex\url\url.sty
INPUT C:\Users\AmrAbdel-Motaleb\AppData\Local\Programs\MiKTeX\tex\latex\url\url.sty
INPUT C:\Users\AmrAbdel-Motaleb\AppData\Local\Programs\MiKTeX\tex\latex\url\url.sty
INPUT C:\Users\AmrAbdel-Motaleb\AppData\Local\Programs\MiKTeX\tex\latex\url\url.sty
INPUT C:\Users\AmrAbdel-Motaleb\AppData\Local\Programs\MiKTeX\tex\latex\url\url.sty
INPUT C:\Users\AmrAbdel-Motaleb\AppData\Local\Programs\MiKTeX\tex\latex\url\url.sty
INPUT C:\Users\AmrAbdel-Motaleb\AppData\Local\Programs\MiKTeX\tex\latex\url\url.sty
INPUT C:\Users\AmrAbdel-Motaleb\AppData\Local\Programs\MiKTeX\tex\generic\bitset\bitset.sty
INPUT C:\Users\AmrAbdel-Motaleb\AppData\Local\Programs\MiKTeX\tex\generic\bitset\bitset.sty
INPUT C:\Users\AmrAbdel-Motaleb\AppData\Local\Programs\MiKTeX\tex\generic\bitset\bitset.sty
INPUT C:\Users\AmrAbdel-Motaleb\AppData\Local\Programs\MiKTeX\tex\generic\bitset\bitset.sty
INPUT C:\Users\AmrAbdel-Motaleb\AppData\Local\Programs\MiKTeX\tex\generic\bitset\bitset.sty
INPUT C:\Users\AmrAbdel-Motaleb\AppData\Local\Programs\MiKTeX\tex\generic\bitset\bitset.sty
INPUT C:\Users\AmrAbdel-Motaleb\AppData\Local\Programs\MiKTeX\tex\generic\bitset\bitset.sty
INPUT C:\Users\AmrAbdel-Motaleb\AppData\Local\Programs\MiKTeX\tex\generic\bitset\bitset.sty
INPUT C:\Users\AmrAbdel-Motaleb\AppData\Local\Programs\MiKTeX\tex\generic\bitset\bitset.sty
INPUT C:\Users\AmrAbdel-Motaleb\AppData\Local\Programs\MiKTeX\tex\generic\bitset\bitset.sty
INPUT C:\Users\AmrAbdel-Motaleb\AppData\Local\Programs\MiKTeX\tex\generic\bitset\bitset.sty
INPUT C:\Users\AmrAbdel-Motaleb\AppData\Local\Programs\MiKTeX\tex\generic\infwarerr\infwarerr.sty
INPUT C:\Users\AmrAbdel-Motaleb\AppData\Local\Programs\MiKTeX\tex\generic\intcalc\intcalc.sty
INPUT C:\Users\AmrAbdel-Motaleb\AppData\Local\Programs\MiKTeX\tex\generic\bigintcalc\bigintcalc.sty
INPUT C:\Users\AmrAbdel-Motaleb\AppData\Local\Programs\MiKTeX\tex\generic\bigintcalc\bigintcalc.sty
INPUT C:\Users\AmrAbdel-Motaleb\AppData\Local\Programs\MiKTeX\tex\generic\bigintcalc\bigintcalc.sty
INPUT C:\Users\AmrAbdel-Motaleb\AppData\Local\Programs\MiKTeX\tex\generic\bigintcalc\bigintcalc.sty
INPUT C:\Users\AmrAbdel-Motaleb\AppData\Local\Programs\MiKTeX\tex\generic\bigintcalc\bigintcalc.sty
INPUT C:\Users\AmrAbdel-Motaleb\AppData\Local\Programs\MiKTeX\tex\generic\bigintcalc\bigintcalc.sty
INPUT C:\Users\AmrAbdel-Motaleb\AppData\Local\Programs\MiKTeX\tex\generic\bigintcalc\bigintcalc.sty
INPUT C:\Users\AmrAbdel-Motaleb\AppData\Local\Programs\MiKTeX\tex\generic\bigintcalc\bigintcalc.sty
INPUT C:\Users\AmrAbdel-Motaleb\AppData\Local\Programs\MiKTeX\tex\generic\bigintcalc\bigintcalc.sty
INPUT C:\Users\AmrAbdel-Motaleb\AppData\Local\Programs\MiKTeX\tex\generic\bigintcalc\bigintcalc.sty
INPUT C:\Users\AmrAbdel-Motaleb\AppData\Local\Programs\MiKTeX\tex\generic\bigintcalc\bigintcalc.sty
INPUT C:\Users\AmrAbdel-Motaleb\AppData\Local\Programs\MiKTeX\tex\generic\pdftexcmds\pdftexcmds.sty
INPUT C:\Users\AmrAbdel-Motaleb\AppData\Local\Programs\MiKTeX\tex\generic\atbegshi\atbegshi.sty
INPUT C:\Users\AmrAbdel-Motaleb\AppData\Local\Programs\MiKTeX\tex\generic\atbegshi\atbegshi.sty
INPUT C:\Users\AmrAbdel-Motaleb\AppData\Local\Programs\MiKTeX\tex\generic\atbegshi\atbegshi.sty
INPUT C:\Users\AmrAbdel-Motaleb\AppData\Local\Programs\MiKTeX\tex\latex\base\atbegshi-ltx.sty
INPUT C:\Users\AmrAbdel-Motaleb\AppData\Local\Programs\MiKTeX\tex\generic\atbegshi\atbegshi.sty
INPUT C:\Users\AmrAbdel-Motaleb\AppData\Local\Programs\MiKTeX\tex\generic\atbegshi\atbegshi.sty
INPUT C:\Users\AmrAbdel-Motaleb\AppData\Local\Programs\MiKTeX\tex\latex\base\atbegshi-ltx.sty
INPUT C:\Users\AmrAbdel-Motaleb\AppData\Local\Programs\MiKTeX\tex\generic\atbegshi\atbegshi.sty
INPUT C:\Users\AmrAbdel-Motaleb\AppData\Local\Programs\MiKTeX\tex\latex\base\atbegshi-ltx.sty
INPUT C:\Users\AmrAbdel-Motaleb\AppData\Local\Programs\MiKTeX\tex\latex\base\atbegshi-ltx.sty
INPUT C:\Users\AmrAbdel-Motaleb\AppData\Local\Programs\MiKTeX\tex\generic\atbegshi\atbegshi.sty
INPUT C:\Users\AmrAbdel-Motaleb\AppData\Local\Programs\MiKTeX\tex\generic\atbegshi\atbegshi.sty
INPUT C:\Users\AmrAbdel-Motaleb\AppData\Local\Programs\MiKTeX\tex\latex\base\atbegshi-ltx.sty
INPUT C:\Users\AmrAbdel-Motaleb\AppData\Local\Programs\MiKTeX\tex\latex\base\atbegshi-ltx.sty
INPUT C:\Users\AmrAbdel-Motaleb\AppData\Local\Programs\MiKTeX\tex\generic\atbegshi\atbegshi.sty
INPUT C:\Users\AmrAbdel-Motaleb\AppData\Local\Programs\MiKTeX\tex\latex\base\atbegshi-ltx.sty
INPUT C:\Users\AmrAbdel-Motaleb\AppData\Local\Programs\MiKTeX\tex\latex\hyperref\hpdftex.def
INPUT C:\Users\AmrAbdel-Motaleb\AppData\Local\Programs\MiKTeX\tex\latex\hyperref\hpdftex.def
INPUT C:\Users\AmrAbdel-Motaleb\AppData\Local\Programs\MiKTeX\tex\latex\hyperref\hpdftex.def
INPUT C:\Users\AmrAbdel-Motaleb\AppData\Local\Programs\MiKTeX\tex\latex\hyperref\hpdftex.def
INPUT C:\Users\AmrAbdel-Motaleb\AppData\Local\Programs\MiKTeX\tex\latex\atveryend\atveryend.sty
INPUT C:\Users\AmrAbdel-Motaleb\AppData\Local\Programs\MiKTeX\tex\latex\atveryend\atveryend.sty
INPUT C:\Users\AmrAbdel-Motaleb\AppData\Local\Programs\MiKTeX\tex\latex\atveryend\atveryend.sty
INPUT C:\Users\AmrAbdel-Motaleb\AppData\Local\Programs\MiKTeX\tex\latex\base\atveryend-ltx.sty
INPUT C:\Users\AmrAbdel-Motaleb\AppData\Local\Programs\MiKTeX\tex\latex\atveryend\atveryend.sty
INPUT C:\Users\AmrAbdel-Motaleb\AppData\Local\Programs\MiKTeX\tex\latex\atveryend\atveryend.sty
INPUT C:\Users\AmrAbdel-Motaleb\AppData\Local\Programs\MiKTeX\tex\latex\base\atveryend-ltx.sty
INPUT C:\Users\AmrAbdel-Motaleb\AppData\Local\Programs\MiKTeX\tex\latex\atveryend\atveryend.sty
INPUT C:\Users\AmrAbdel-Motaleb\AppData\Local\Programs\MiKTeX\tex\latex\base\atveryend-ltx.sty
INPUT C:\Users\AmrAbdel-Motaleb\AppData\Local\Programs\MiKTeX\tex\latex\base\atveryend-ltx.sty
INPUT C:\Users\AmrAbdel-Motaleb\AppData\Local\Programs\MiKTeX\tex\latex\atveryend\atveryend.sty
INPUT C:\Users\AmrAbdel-Motaleb\AppData\Local\Programs\MiKTeX\tex\latex\atveryend\atveryend.sty
INPUT C:\Users\AmrAbdel-Motaleb\AppData\Local\Programs\MiKTeX\tex\latex\base\atveryend-ltx.sty
INPUT C:\Users\AmrAbdel-Motaleb\AppData\Local\Programs\MiKTeX\tex\latex\base\atveryend-ltx.sty
INPUT C:\Users\AmrAbdel-Motaleb\AppData\Local\Programs\MiKTeX\tex\latex\atveryend\atveryend.sty
INPUT C:\Users\AmrAbdel-Motaleb\AppData\Local\Programs\MiKTeX\tex\latex\base\atveryend-ltx.sty
INPUT C:\Users\AmrAbdel-Motaleb\AppData\Local\Programs\MiKTeX\tex\latex\rerunfilecheck\rerunfilecheck.sty
INPUT C:\Users\AmrAbdel-Motaleb\AppData\Local\Programs\MiKTeX\tex\latex\rerunfilecheck\rerunfilecheck.sty
INPUT C:\Users\AmrAbdel-Motaleb\AppData\Local\Programs\MiKTeX\tex\latex\rerunfilecheck\rerunfilecheck.sty
INPUT C:\Users\AmrAbdel-Motaleb\AppData\Local\Programs\MiKTeX\tex\latex\rerunfilecheck\rerunfilecheck.sty
INPUT C:\Users\AmrAbdel-Motaleb\AppData\Local\Programs\MiKTeX\tex\latex\rerunfilecheck\rerunfilecheck.sty
INPUT C:\Users\AmrAbdel-Motaleb\AppData\Local\Programs\MiKTeX\tex\latex\rerunfilecheck\rerunfilecheck.sty
INPUT C:\Users\AmrAbdel-Motaleb\AppData\Local\Programs\MiKTeX\tex\latex\rerunfilecheck\rerunfilecheck.sty
INPUT C:\Users\AmrAbdel-Motaleb\AppData\Local\Programs\MiKTeX\tex\latex\rerunfilecheck\rerunfilecheck.sty
INPUT C:\Users\AmrAbdel-Motaleb\AppData\Local\Programs\MiKTeX\tex\latex\rerunfilecheck\rerunfilecheck.sty
INPUT C:\Users\AmrAbdel-Motaleb\AppData\Local\Programs\MiKTeX\tex\latex\rerunfilecheck\rerunfilecheck.sty
INPUT C:\Users\AmrAbdel-Motaleb\AppData\Local\Programs\MiKTeX\tex\latex\rerunfilecheck\rerunfilecheck.sty
INPUT C:\Users\AmrAbdel-Motaleb\AppData\Local\Programs\MiKTeX\tex\latex\kvoptions\kvoptions.sty
INPUT C:\Users\AmrAbdel-Motaleb\AppData\Local\Programs\MiKTeX\tex\generic\infwarerr\infwarerr.sty
INPUT C:\Users\AmrAbdel-Motaleb\AppData\Local\Programs\MiKTeX\tex\generic\pdftexcmds\pdftexcmds.sty
INPUT C:\Users\AmrAbdel-Motaleb\AppData\Local\Programs\MiKTeX\tex\latex\atveryend\atveryend.sty
INPUT C:\Users\AmrAbdel-Motaleb\AppData\Local\Programs\MiKTeX\tex\generic\uniquecounter\uniquecounter.sty
INPUT C:\Users\AmrAbdel-Motaleb\AppData\Local\Programs\MiKTeX\tex\generic\uniquecounter\uniquecounter.sty
INPUT C:\Users\AmrAbdel-Motaleb\AppData\Local\Programs\MiKTeX\tex\generic\uniquecounter\uniquecounter.sty
INPUT C:\Users\AmrAbdel-Motaleb\AppData\Local\Programs\MiKTeX\tex\generic\uniquecounter\uniquecounter.sty
INPUT C:\Users\AmrAbdel-Motaleb\AppData\Local\Programs\MiKTeX\tex\generic\uniquecounter\uniquecounter.sty
INPUT C:\Users\AmrAbdel-Motaleb\AppData\Local\Programs\MiKTeX\tex\generic\uniquecounter\uniquecounter.sty
INPUT C:\Users\AmrAbdel-Motaleb\AppData\Local\Programs\MiKTeX\tex\generic\uniquecounter\uniquecounter.sty
INPUT C:\Users\AmrAbdel-Motaleb\AppData\Local\Programs\MiKTeX\tex\generic\uniquecounter\uniquecounter.sty
INPUT C:\Users\AmrAbdel-Motaleb\AppData\Local\Programs\MiKTeX\tex\generic\uniquecounter\uniquecounter.sty
INPUT C:\Users\AmrAbdel-Motaleb\AppData\Local\Programs\MiKTeX\tex\generic\uniquecounter\uniquecounter.sty
INPUT C:\Users\AmrAbdel-Motaleb\AppData\Local\Programs\MiKTeX\tex\generic\uniquecounter\uniquecounter.sty
INPUT C:\Users\AmrAbdel-Motaleb\AppData\Local\Programs\MiKTeX\tex\generic\bigintcalc\bigintcalc.sty
INPUT C:\Users\AmrAbdel-Motaleb\AppData\Local\Programs\MiKTeX\tex\generic\infwarerr\infwarerr.sty
INPUT C:\Users\AmrAbdel-Motaleb\AppData\Local\Programs\MiKTeX\tex\latex\fancyhdr\fancyhdr.sty
INPUT C:\Users\AmrAbdel-Motaleb\AppData\Local\Programs\MiKTeX\tex\latex\fancyhdr\fancyhdr.sty
INPUT C:\Users\AmrAbdel-Motaleb\AppData\Local\Programs\MiKTeX\tex\latex\fancyhdr\fancyhdr.sty
INPUT C:\Users\AmrAbdel-Motaleb\AppData\Local\Programs\MiKTeX\tex\latex\fancyhdr\fancyhdr.sty
INPUT C:\Users\AmrAbdel-Motaleb\AppData\Local\Programs\MiKTeX\tex\latex\fancyhdr\fancyhdr.sty
INPUT C:\Users\AmrAbdel-Motaleb\AppData\Local\Programs\MiKTeX\tex\latex\fancyhdr\fancyhdr.sty
INPUT C:\Users\AmrAbdel-Motaleb\AppData\Local\Programs\MiKTeX\tex\latex\fancyhdr\fancyhdr.sty
INPUT C:\Users\AmrAbdel-Motaleb\AppData\Local\Programs\MiKTeX\tex\latex\fancyhdr\fancyhdr.sty
INPUT C:\Users\AmrAbdel-Motaleb\AppData\Local\Programs\MiKTeX\tex\latex\fancyhdr\fancyhdr.sty
INPUT C:\Users\AmrAbdel-Motaleb\AppData\Local\Programs\MiKTeX\tex\latex\fancyhdr\fancyhdr.sty
INPUT C:\Users\AmrAbdel-Motaleb\AppData\Local\Programs\MiKTeX\tex\latex\fancyhdr\fancyhdr.sty
INPUT C:\Users\AmrAbdel-Motaleb\AppData\Local\Programs\MiKTeX\tex\generic\babel\babel.sty
INPUT C:\Users\AmrAbdel-Motaleb\AppData\Local\Programs\MiKTeX\tex\generic\babel\babel.sty
INPUT C:\Users\AmrAbdel-Motaleb\AppData\Local\Programs\MiKTeX\tex\generic\babel\babel.sty
INPUT C:\Users\AmrAbdel-Motaleb\AppData\Local\Programs\MiKTeX\tex\generic\babel\babel.sty
INPUT C:\Users\AmrAbdel-Motaleb\AppData\Local\Programs\MiKTeX\tex\generic\babel\babel.sty
INPUT C:\Users\AmrAbdel-Motaleb\AppData\Local\Programs\MiKTeX\tex\generic\babel\babel.sty
INPUT C:\Users\AmrAbdel-Motaleb\AppData\Local\Programs\MiKTeX\tex\generic\babel\babel.sty
INPUT C:\Users\AmrAbdel-Motaleb\AppData\Local\Programs\MiKTeX\tex\generic\babel\babel.sty
INPUT C:\Users\AmrAbdel-Motaleb\AppData\Local\Programs\MiKTeX\tex\generic\babel\babel.sty
INPUT C:\Users\AmrAbdel-Motaleb\AppData\Local\Programs\MiKTeX\tex\generic\babel\babel.sty
INPUT C:\Users\AmrAbdel-Motaleb\AppData\Local\Programs\MiKTeX\tex\generic\babel\babel.sty
INPUT C:\Users\AmrAbdel-Motaleb\AppData\Local\Programs\MiKTeX\tex\generic\babel\babel.def
INPUT C:\Users\AmrAbdel-Motaleb\AppData\Local\Programs\MiKTeX\tex\generic\babel\txtbabel.def
INPUT C:\Users\AmrAbdel-Motaleb\AppData\Local\Programs\MiKTeX\tex\latex\arabi\bblopts.cfg
INPUT C:\Users\AmrAbdel-Motaleb\AppData\Local\Programs\MiKTeX\tex\latex\arabi\bblopts.cfg
INPUT C:\Users\AmrAbdel-Motaleb\AppData\Local\Programs\MiKTeX\tex\latex\arabi\bblopts.cfg
INPUT C:\Users\AmrAbdel-Motaleb\AppData\Local\Programs\MiKTeX\tex\latex\arabi\bblopts.cfg
INPUT C:\Users\AmrAbdel-Motaleb\AppData\Local\Programs\MiKTeX\tex\latex\babel-english\english.ldf
INPUT C:\Users\AmrAbdel-Motaleb\AppData\Local\Programs\MiKTeX\tex\latex\babel-english\english.ldf
INPUT C:\Users\AmrAbdel-Motaleb\AppData\Local\Programs\MiKTeX\tex\latex\babel-english\english.ldf
INPUT C:\Users\AmrAbdel-Motaleb\AppData\Local\Programs\MiKTeX\tex\latex\babel-english\english.ldf
INPUT C:\Users\AmrAbdel-Motaleb\AppData\Local\Programs\MiKTeX\tex\latex\tools\tabularx.sty
INPUT C:\Users\AmrAbdel-Motaleb\AppData\Local\Programs\MiKTeX\tex\latex\tools\tabularx.sty
INPUT C:\Users\AmrAbdel-Motaleb\AppData\Local\Programs\MiKTeX\tex\latex\tools\tabularx.sty
INPUT C:\Users\AmrAbdel-Motaleb\AppData\Local\Programs\MiKTeX\tex\latex\tools\tabularx.sty
INPUT C:\Users\AmrAbdel-Motaleb\AppData\Local\Programs\MiKTeX\tex\latex\tools\tabularx.sty
INPUT C:\Users\AmrAbdel-Motaleb\AppData\Local\Programs\MiKTeX\tex\latex\tools\tabularx.sty
INPUT C:\Users\AmrAbdel-Motaleb\AppData\Local\Programs\MiKTeX\tex\latex\tools\tabularx.sty
INPUT C:\Users\AmrAbdel-Motaleb\AppData\Local\Programs\MiKTeX\tex\latex\tools\tabularx.sty
INPUT C:\Users\AmrAbdel-Motaleb\AppData\Local\Programs\MiKTeX\tex\latex\tools\tabularx.sty
INPUT C:\Users\AmrAbdel-Motaleb\AppData\Local\Programs\MiKTeX\tex\latex\tools\tabularx.sty
INPUT C:\Users\AmrAbdel-Motaleb\AppData\Local\Programs\MiKTeX\tex\latex\tools\tabularx.sty
INPUT C:\Users\AmrAbdel-Motaleb\AppData\Local\Programs\MiKTeX\tex\latex\tools\array.sty
INPUT C:\Users\AmrAbdel-Motaleb\AppData\Local\Programs\MiKTeX\tex\latex\tools\array.sty
INPUT C:\Users\AmrAbdel-Motaleb\AppData\Local\Programs\MiKTeX\tex\latex\tools\array.sty
INPUT C:\Users\AmrAbdel-Motaleb\AppData\Local\Programs\MiKTeX\tex\latex\tools\array.sty
INPUT C:\Users\AmrAbdel-Motaleb\AppData\Local\Programs\MiKTeX\tex\latex\tools\array.sty
INPUT C:\Users\AmrAbdel-Motaleb\AppData\Local\Programs\MiKTeX\tex\latex\tools\array.sty
INPUT C:\Users\AmrAbdel-Motaleb\AppData\Local\Programs\MiKTeX\tex\latex\tools\array.sty
INPUT C:\Users\AmrAbdel-Motaleb\AppData\Local\Programs\MiKTeX\tex\latex\tools\array.sty
INPUT C:\Users\AmrAbdel-Motaleb\AppData\Local\Programs\MiKTeX\tex\latex\tools\array.sty
INPUT C:\Users\AmrAbdel-Motaleb\AppData\Local\Programs\MiKTeX\tex\latex\tools\array.sty
INPUT C:\Users\AmrAbdel-Motaleb\AppData\Local\Programs\MiKTeX\tex\latex\tools\array.sty
INPUT C:\Users\AmrAbdel-Motaleb\AppData\Local\Programs\MiKTeX\tex\latex\fontawesome5\fontawesome5.sty
INPUT C:\Users\AmrAbdel-Motaleb\AppData\Local\Programs\MiKTeX\tex\latex\fontawesome5\fontawesome5.sty
INPUT C:\Users\AmrAbdel-Motaleb\AppData\Local\Programs\MiKTeX\tex\latex\fontawesome5\fontawesome5.sty
INPUT C:\Users\AmrAbdel-Motaleb\AppData\Local\Programs\MiKTeX\tex\latex\fontawesome5\fontawesome5.sty
INPUT C:\Users\AmrAbdel-Motaleb\AppData\Local\Programs\MiKTeX\tex\latex\fontawesome5\fontawesome5.sty
INPUT C:\Users\AmrAbdel-Motaleb\AppData\Local\Programs\MiKTeX\tex\latex\fontawesome5\fontawesome5.sty
INPUT C:\Users\AmrAbdel-Motaleb\AppData\Local\Programs\MiKTeX\tex\latex\fontawesome5\fontawesome5.sty
INPUT C:\Users\AmrAbdel-Motaleb\AppData\Local\Programs\MiKTeX\tex\latex\fontawesome5\fontawesome5.sty
INPUT C:\Users\AmrAbdel-Motaleb\AppData\Local\Programs\MiKTeX\tex\latex\fontawesome5\fontawesome5.sty
INPUT C:\Users\AmrAbdel-Motaleb\AppData\Local\Programs\MiKTeX\tex\latex\fontawesome5\fontawesome5.sty
INPUT C:\Users\AmrAbdel-Motaleb\AppData\Local\Programs\MiKTeX\tex\latex\fontawesome5\fontawesome5.sty
INPUT C:\Users\AmrAbdel-Motaleb\AppData\Local\Programs\MiKTeX\tex\latex\l3kernel\expl3.sty
INPUT C:\Users\AmrAbdel-Motaleb\AppData\Local\Programs\MiKTeX\tex\latex\l3kernel\expl3.sty
INPUT C:\Users\AmrAbdel-Motaleb\AppData\Local\Programs\MiKTeX\tex\latex\l3kernel\expl3.sty
INPUT C:\Users\AmrAbdel-Motaleb\AppData\Local\Programs\MiKTeX\tex\latex\l3kernel\expl3.sty
INPUT C:\Users\AmrAbdel-Motaleb\AppData\Local\Programs\MiKTeX\tex\latex\l3kernel\expl3.sty
INPUT C:\Users\AmrAbdel-Motaleb\AppData\Local\Programs\MiKTeX\tex\latex\l3kernel\expl3.sty
INPUT C:\Users\AmrAbdel-Motaleb\AppData\Local\Programs\MiKTeX\tex\latex\l3kernel\expl3.sty
INPUT C:\Users\AmrAbdel-Motaleb\AppData\Local\Programs\MiKTeX\tex\latex\l3kernel\expl3.sty
INPUT C:\Users\AmrAbdel-Motaleb\AppData\Local\Programs\MiKTeX\tex\latex\l3kernel\expl3.sty
INPUT C:\Users\AmrAbdel-Motaleb\AppData\Local\Programs\MiKTeX\tex\latex\l3kernel\expl3.sty
INPUT C:\Users\AmrAbdel-Motaleb\AppData\Local\Programs\MiKTeX\tex\latex\l3kernel\expl3.sty
INPUT C:\Users\AmrAbdel-Motaleb\AppData\Local\Programs\MiKTeX\tex\latex\l3backend\l3backend-pdftex.def
INPUT C:\Users\AmrAbdel-Motaleb\AppData\Local\Programs\MiKTeX\tex\latex\l3backend\l3backend-pdftex.def
INPUT C:\Users\AmrAbdel-Motaleb\AppData\Local\Programs\MiKTeX\tex\latex\l3backend\l3backend-pdftex.def
INPUT C:\Users\AmrAbdel-Motaleb\AppData\Local\Programs\MiKTeX\tex\latex\l3backend\l3backend-pdftex.def
INPUT C:\Users\AmrAbdel-Motaleb\AppData\Local\Programs\MiKTeX\tex\latex\l3backend\l3backend-pdftex.def
INPUT C:\Users\AmrAbdel-Motaleb\AppData\Local\Programs\MiKTeX\tex\latex\l3backend\l3backend-pdftex.def
INPUT C:\Users\AmrAbdel-Motaleb\AppData\Local\Programs\MiKTeX\tex\latex\l3backend\l3backend-pdftex.def
INPUT C:\Users\AmrAbdel-Motaleb\AppData\Local\Programs\MiKTeX\tex\latex\l3backend\l3backend-pdftex.def
INPUT C:\Users\AmrAbdel-Motaleb\AppData\Local\Programs\MiKTeX\tex\latex\l3backend\l3backend-pdftex.def
INPUT C:\Users\AmrAbdel-Motaleb\AppData\Local\Programs\MiKTeX\tex\latex\l3backend\l3backend-pdftex.def
INPUT C:\Users\AmrAbdel-Motaleb\AppData\Local\Programs\MiKTeX\tex\latex\l3backend\l3backend-pdftex.def
INPUT C:\Users\AmrAbdel-Motaleb\AppData\Local\Programs\MiKTeX\tex\latex\l3packages\l3keys2e\l3keys2e.sty
INPUT C:\Users\AmrAbdel-Motaleb\AppData\Local\Programs\MiKTeX\tex\latex\l3packages\l3keys2e\l3keys2e.sty
INPUT C:\Users\AmrAbdel-Motaleb\AppData\Local\Programs\MiKTeX\tex\latex\l3packages\l3keys2e\l3keys2e.sty
INPUT C:\Users\AmrAbdel-Motaleb\AppData\Local\Programs\MiKTeX\tex\latex\l3packages\l3keys2e\l3keys2e.sty
INPUT C:\Users\AmrAbdel-Motaleb\AppData\Local\Programs\MiKTeX\tex\latex\l3packages\l3keys2e\l3keys2e.sty
INPUT C:\Users\AmrAbdel-Motaleb\AppData\Local\Programs\MiKTeX\tex\latex\l3packages\l3keys2e\l3keys2e.sty
INPUT C:\Users\AmrAbdel-Motaleb\AppData\Local\Programs\MiKTeX\tex\latex\l3packages\l3keys2e\l3keys2e.sty
INPUT C:\Users\AmrAbdel-Motaleb\AppData\Local\Programs\MiKTeX\tex\latex\l3packages\l3keys2e\l3keys2e.sty
INPUT C:\Users\AmrAbdel-Motaleb\AppData\Local\Programs\MiKTeX\tex\latex\l3packages\l3keys2e\l3keys2e.sty
INPUT C:\Users\AmrAbdel-Motaleb\AppData\Local\Programs\MiKTeX\tex\latex\l3packages\l3keys2e\l3keys2e.sty
INPUT C:\Users\AmrAbdel-Motaleb\AppData\Local\Programs\MiKTeX\tex\latex\l3packages\l3keys2e\l3keys2e.sty
INPUT C:\Users\AmrAbdel-Motaleb\AppData\Local\Programs\MiKTeX\tex\latex\l3kernel\expl3.sty
INPUT C:\Users\AmrAbdel-Motaleb\AppData\Local\Programs\MiKTeX\tex\latex\l3packages\xparse\xparse.sty
INPUT C:\Users\AmrAbdel-Motaleb\AppData\Local\Programs\MiKTeX\tex\latex\l3packages\xparse\xparse.sty
INPUT C:\Users\AmrAbdel-Motaleb\AppData\Local\Programs\MiKTeX\tex\latex\l3packages\xparse\xparse.sty
INPUT C:\Users\AmrAbdel-Motaleb\AppData\Local\Programs\MiKTeX\tex\latex\l3packages\xparse\xparse.sty
INPUT C:\Users\AmrAbdel-Motaleb\AppData\Local\Programs\MiKTeX\tex\latex\l3packages\xparse\xparse.sty
INPUT C:\Users\AmrAbdel-Motaleb\AppData\Local\Programs\MiKTeX\tex\latex\l3packages\xparse\xparse.sty
INPUT C:\Users\AmrAbdel-Motaleb\AppData\Local\Programs\MiKTeX\tex\latex\l3packages\xparse\xparse.sty
INPUT C:\Users\AmrAbdel-Motaleb\AppData\Local\Programs\MiKTeX\tex\latex\l3packages\xparse\xparse.sty
INPUT C:\Users\AmrAbdel-Motaleb\AppData\Local\Programs\MiKTeX\tex\latex\l3packages\xparse\xparse.sty
INPUT C:\Users\AmrAbdel-Motaleb\AppData\Local\Programs\MiKTeX\tex\latex\l3packages\xparse\xparse.sty
INPUT C:\Users\AmrAbdel-Motaleb\AppData\Local\Programs\MiKTeX\tex\latex\l3packages\xparse\xparse.sty
INPUT C:\Users\AmrAbdel-Motaleb\AppData\Local\Programs\MiKTeX\tex\latex\l3kernel\expl3.sty
INPUT C:\Users\AmrAbdel-Motaleb\AppData\Local\Programs\MiKTeX\tex\latex\fontawesome5\fontawesome5-generic-helper.sty
INPUT C:\Users\AmrAbdel-Motaleb\AppData\Local\Programs\MiKTeX\tex\latex\fontawesome5\fontawesome5-generic-helper.sty
INPUT C:\Users\AmrAbdel-Motaleb\AppData\Local\Programs\MiKTeX\tex\latex\fontawesome5\fontawesome5-generic-helper.sty
INPUT C:\Users\AmrAbdel-Motaleb\AppData\Local\Programs\MiKTeX\tex\latex\fontawesome5\fontawesome5-generic-helper.sty
INPUT C:\Users\AmrAbdel-Motaleb\AppData\Local\Programs\MiKTeX\tex\latex\fontawesome5\fontawesome5-generic-helper.sty
INPUT C:\Users\AmrAbdel-Motaleb\AppData\Local\Programs\MiKTeX\tex\latex\fontawesome5\fontawesome5-generic-helper.sty
INPUT C:\Users\AmrAbdel-Motaleb\AppData\Local\Programs\MiKTeX\tex\latex\fontawesome5\fontawesome5-generic-helper.sty
INPUT C:\Users\AmrAbdel-Motaleb\AppData\Local\Programs\MiKTeX\tex\latex\fontawesome5\fontawesome5-generic-helper.sty
INPUT C:\Users\AmrAbdel-Motaleb\AppData\Local\Programs\MiKTeX\tex\latex\fontawesome5\fontawesome5-generic-helper.sty
INPUT C:\Users\AmrAbdel-Motaleb\AppData\Local\Programs\MiKTeX\tex\latex\fontawesome5\fontawesome5-generic-helper.sty
INPUT C:\Users\AmrAbdel-Motaleb\AppData\Local\Programs\MiKTeX\tex\latex\fontawesome5\fontawesome5-generic-helper.sty
INPUT C:\Users\AmrAbdel-Motaleb\AppData\Local\Programs\MiKTeX\tex\latex\fontawesome5\fontawesome5-mapping.def
INPUT C:\Users\AmrAbdel-Motaleb\AppData\Local\Programs\MiKTeX\tex\latex\fontawesome5\fontawesome5-mapping.def
INPUT C:\Users\AmrAbdel-Motaleb\AppData\Local\Programs\MiKTeX\tex\latex\tools\multicol.sty
INPUT C:\Users\AmrAbdel-Motaleb\AppData\Local\Programs\MiKTeX\tex\latex\tools\multicol.sty
INPUT C:\Users\AmrAbdel-Motaleb\AppData\Local\Programs\MiKTeX\tex\latex\tools\multicol.sty
INPUT C:\Users\AmrAbdel-Motaleb\AppData\Local\Programs\MiKTeX\tex\latex\tools\multicol.sty
INPUT C:\Users\AmrAbdel-Motaleb\AppData\Local\Programs\MiKTeX\tex\latex\tools\multicol.sty
INPUT C:\Users\AmrAbdel-Motaleb\AppData\Local\Programs\MiKTeX\tex\latex\tools\multicol.sty
INPUT C:\Users\AmrAbdel-Motaleb\AppData\Local\Programs\MiKTeX\tex\latex\tools\multicol.sty
INPUT C:\Users\AmrAbdel-Motaleb\AppData\Local\Programs\MiKTeX\tex\latex\tools\multicol.sty
INPUT C:\Users\AmrAbdel-Motaleb\AppData\Local\Programs\MiKTeX\tex\latex\tools\multicol.sty
INPUT C:\Users\AmrAbdel-Motaleb\AppData\Local\Programs\MiKTeX\tex\latex\tools\multicol.sty
INPUT C:\Users\AmrAbdel-Motaleb\AppData\Local\Programs\MiKTeX\tex\latex\tools\multicol.sty
INPUT C:\Users\AmrAbdel-Motaleb\AppData\Local\Programs\MiKTeX\tex\generic\pdftex\glyphtounicode.tex
INPUT C:\Users\AmrAbdel-Motaleb\AppData\Local\Programs\MiKTeX\tex\generic\pdftex\glyphtounicode.tex
INPUT C:\Users\AmrAbdel-Motaleb\AppData\Local\Programs\MiKTeX\tex\generic\pdftex\glyphtounicode.tex
INPUT C:\Users\AmrAbdel-Motaleb\AppData\Local\Programs\MiKTeX\tex\generic\pdftex\glyphtounicode.tex
INPUT C:\Users\AmrAbdel-Motaleb\AppData\Local\Programs\MiKTeX\tex\generic\pdftex\glyphtounicode.tex
INPUT C:\Users\AmrAbdel-Motaleb\AppData\Local\Programs\MiKTeX\tex\generic\pdftex\glyphtounicode.tex
INPUT C:\Users\AmrAbdel-Motaleb\AppData\Local\Programs\MiKTeX\tex\generic\pdftex\glyphtounicode.tex
INPUT C:\Users\AmrAbdel-Motaleb\AppData\Local\Programs\MiKTeX\tex\latex\cormorantgaramond\CormorantGaramond.sty
INPUT C:\Users\AmrAbdel-Motaleb\AppData\Local\Programs\MiKTeX\tex\latex\cormorantgaramond\CormorantGaramond.sty
INPUT C:\Users\AmrAbdel-Motaleb\AppData\Local\Programs\MiKTeX\tex\latex\cormorantgaramond\CormorantGaramond.sty
INPUT C:\Users\AmrAbdel-Motaleb\AppData\Local\Programs\MiKTeX\tex\latex\cormorantgaramond\CormorantGaramond.sty
INPUT C:\Users\AmrAbdel-Motaleb\AppData\Local\Programs\MiKTeX\tex\latex\cormorantgaramond\CormorantGaramond.sty
INPUT C:\Users\AmrAbdel-Motaleb\AppData\Local\Programs\MiKTeX\tex\latex\cormorantgaramond\CormorantGaramond.sty
INPUT C:\Users\AmrAbdel-Motaleb\AppData\Local\Programs\MiKTeX\tex\latex\cormorantgaramond\CormorantGaramond.sty
INPUT C:\Users\AmrAbdel-Motaleb\AppData\Local\Programs\MiKTeX\tex\latex\cormorantgaramond\CormorantGaramond.sty
INPUT C:\Users\AmrAbdel-Motaleb\AppData\Local\Programs\MiKTeX\tex\latex\cormorantgaramond\CormorantGaramond.sty
INPUT C:\Users\AmrAbdel-Motaleb\AppData\Local\Programs\MiKTeX\tex\latex\cormorantgaramond\CormorantGaramond.sty
INPUT C:\Users\AmrAbdel-Motaleb\AppData\Local\Programs\MiKTeX\tex\latex\cormorantgaramond\CormorantGaramond.sty
INPUT C:\Users\AmrAbdel-Motaleb\AppData\Local\Programs\MiKTeX\tex\generic\iftex\ifxetex.sty
INPUT C:\Users\AmrAbdel-Motaleb\AppData\Local\Programs\MiKTeX\tex\generic\iftex\ifxetex.sty
INPUT C:\Users\AmrAbdel-Motaleb\AppData\Local\Programs\MiKTeX\tex\generic\iftex\ifxetex.sty
INPUT C:\Users\AmrAbdel-Motaleb\AppData\Local\Programs\MiKTeX\tex\generic\iftex\ifxetex.sty
INPUT C:\Users\AmrAbdel-Motaleb\AppData\Local\Programs\MiKTeX\tex\generic\iftex\ifxetex.sty
INPUT C:\Users\AmrAbdel-Motaleb\AppData\Local\Programs\MiKTeX\tex\generic\iftex\ifxetex.sty
INPUT C:\Users\AmrAbdel-Motaleb\AppData\Local\Programs\MiKTeX\tex\generic\iftex\ifxetex.sty
INPUT C:\Users\AmrAbdel-Motaleb\AppData\Local\Programs\MiKTeX\tex\generic\iftex\ifxetex.sty
INPUT C:\Users\AmrAbdel-Motaleb\AppData\Local\Programs\MiKTeX\tex\generic\iftex\ifxetex.sty
INPUT C:\Users\AmrAbdel-Motaleb\AppData\Local\Programs\MiKTeX\tex\generic\iftex\ifxetex.sty
INPUT C:\Users\AmrAbdel-Motaleb\AppData\Local\Programs\MiKTeX\tex\generic\iftex\ifxetex.sty
INPUT C:\Users\AmrAbdel-Motaleb\AppData\Local\Programs\MiKTeX\tex\generic\iftex\iftex.sty
INPUT C:\Users\AmrAbdel-Motaleb\AppData\Local\Programs\MiKTeX\tex\generic\iftex\ifluatex.sty
INPUT C:\Users\AmrAbdel-Motaleb\AppData\Local\Programs\MiKTeX\tex\generic\iftex\ifluatex.sty
INPUT C:\Users\AmrAbdel-Motaleb\AppData\Local\Programs\MiKTeX\tex\generic\iftex\ifluatex.sty
INPUT C:\Users\AmrAbdel-Motaleb\AppData\Local\Programs\MiKTeX\tex\generic\iftex\ifluatex.sty
INPUT C:\Users\AmrAbdel-Motaleb\AppData\Local\Programs\MiKTeX\tex\generic\iftex\ifluatex.sty
INPUT C:\Users\AmrAbdel-Motaleb\AppData\Local\Programs\MiKTeX\tex\generic\iftex\ifluatex.sty
INPUT C:\Users\AmrAbdel-Motaleb\AppData\Local\Programs\MiKTeX\tex\generic\iftex\ifluatex.sty
INPUT C:\Users\AmrAbdel-Motaleb\AppData\Local\Programs\MiKTeX\tex\generic\iftex\ifluatex.sty
INPUT C:\Users\AmrAbdel-Motaleb\AppData\Local\Programs\MiKTeX\tex\generic\iftex\ifluatex.sty
INPUT C:\Users\AmrAbdel-Motaleb\AppData\Local\Programs\MiKTeX\tex\generic\iftex\ifluatex.sty
INPUT C:\Users\AmrAbdel-Motaleb\AppData\Local\Programs\MiKTeX\tex\generic\iftex\ifluatex.sty
INPUT C:\Users\AmrAbdel-Motaleb\AppData\Local\Programs\MiKTeX\tex\generic\iftex\iftex.sty
INPUT C:\Users\AmrAbdel-Motaleb\AppData\Local\Programs\MiKTeX\tex\latex\xkeyval\xkeyval.sty
INPUT C:\Users\AmrAbdel-Motaleb\AppData\Local\Programs\MiKTeX\tex\latex\xkeyval\xkeyval.sty
INPUT C:\Users\AmrAbdel-Motaleb\AppData\Local\Programs\MiKTeX\tex\latex\xkeyval\xkeyval.sty
INPUT C:\Users\AmrAbdel-Motaleb\AppData\Local\Programs\MiKTeX\tex\latex\xkeyval\xkeyval.sty
INPUT C:\Users\AmrAbdel-Motaleb\AppData\Local\Programs\MiKTeX\tex\latex\xkeyval\xkeyval.sty
INPUT C:\Users\AmrAbdel-Motaleb\AppData\Local\Programs\MiKTeX\tex\latex\xkeyval\xkeyval.sty
INPUT C:\Users\AmrAbdel-Motaleb\AppData\Local\Programs\MiKTeX\tex\latex\xkeyval\xkeyval.sty
INPUT C:\Users\AmrAbdel-Motaleb\AppData\Local\Programs\MiKTeX\tex\latex\xkeyval\xkeyval.sty
INPUT C:\Users\AmrAbdel-Motaleb\AppData\Local\Programs\MiKTeX\tex\latex\xkeyval\xkeyval.sty
INPUT C:\Users\AmrAbdel-Motaleb\AppData\Local\Programs\MiKTeX\tex\latex\xkeyval\xkeyval.sty
INPUT C:\Users\AmrAbdel-Motaleb\AppData\Local\Programs\MiKTeX\tex\latex\xkeyval\xkeyval.sty
INPUT C:\Users\AmrAbdel-Motaleb\AppData\Local\Programs\MiKTeX\tex\generic\xkeyval\xkeyval.tex
INPUT C:\Users\AmrAbdel-Motaleb\AppData\Local\Programs\MiKTeX\tex\generic\xkeyval\xkvutils.tex
INPUT C:\Users\AmrAbdel-Motaleb\AppData\Local\Programs\MiKTeX\tex\latex\base\textcomp.sty
INPUT C:\Users\AmrAbdel-Motaleb\AppData\Local\Programs\MiKTeX\tex\latex\base\textcomp.sty
INPUT C:\Users\AmrAbdel-Motaleb\AppData\Local\Programs\MiKTeX\tex\latex\base\textcomp.sty
INPUT C:\Users\AmrAbdel-Motaleb\AppData\Local\Programs\MiKTeX\tex\latex\base\textcomp.sty
INPUT C:\Users\AmrAbdel-Motaleb\AppData\Local\Programs\MiKTeX\tex\latex\base\textcomp.sty
INPUT C:\Users\AmrAbdel-Motaleb\AppData\Local\Programs\MiKTeX\tex\latex\base\textcomp.sty
INPUT C:\Users\AmrAbdel-Motaleb\AppData\Local\Programs\MiKTeX\tex\latex\base\textcomp.sty
INPUT C:\Users\AmrAbdel-Motaleb\AppData\Local\Programs\MiKTeX\tex\latex\base\textcomp.sty
INPUT C:\Users\AmrAbdel-Motaleb\AppData\Local\Programs\MiKTeX\tex\latex\base\textcomp.sty
INPUT C:\Users\AmrAbdel-Motaleb\AppData\Local\Programs\MiKTeX\tex\latex\base\textcomp.sty
INPUT C:\Users\AmrAbdel-Motaleb\AppData\Local\Programs\MiKTeX\tex\latex\base\textcomp.sty
INPUT C:\Users\AmrAbdel-Motaleb\AppData\Local\Programs\MiKTeX\tex\latex\xkeyval\xkeyval.sty
INPUT C:\Users\AmrAbdel-Motaleb\AppData\Local\Programs\MiKTeX\tex\latex\base\fontenc.sty
INPUT C:\Users\AmrAbdel-Motaleb\AppData\Local\Programs\MiKTeX\tex\latex\base\fontenc.sty
INPUT C:\Users\AmrAbdel-Motaleb\AppData\Local\Programs\MiKTeX\tex\latex\base\fontenc.sty
INPUT C:\Users\AmrAbdel-Motaleb\AppData\Local\Programs\MiKTeX\tex\latex\base\fontenc.sty
INPUT C:\Users\AmrAbdel-Motaleb\AppData\Local\Programs\MiKTeX\tex\latex\base\fontenc.sty
INPUT C:\Users\AmrAbdel-Motaleb\AppData\Local\Programs\MiKTeX\tex\latex\base\fontenc.sty
INPUT C:\Users\AmrAbdel-Motaleb\AppData\Local\Programs\MiKTeX\tex\latex\base\fontenc.sty
INPUT C:\Users\AmrAbdel-Motaleb\AppData\Local\Programs\MiKTeX\tex\latex\base\fontenc.sty
INPUT C:\Users\AmrAbdel-Motaleb\AppData\Local\Programs\MiKTeX\tex\latex\base\fontenc.sty
INPUT C:\Users\AmrAbdel-Motaleb\AppData\Local\Programs\MiKTeX\tex\latex\base\fontenc.sty
INPUT C:\Users\AmrAbdel-Motaleb\AppData\Local\Programs\MiKTeX\tex\latex\base\fontenc.sty
INPUT C:\Users\AmrAbdel-Motaleb\AppData\Local\Programs\MiKTeX\tex\latex\fontaxes\fontaxes.sty
INPUT C:\Users\AmrAbdel-Motaleb\AppData\Local\Programs\MiKTeX\tex\latex\fontaxes\fontaxes.sty
INPUT C:\Users\AmrAbdel-Motaleb\AppData\Local\Programs\MiKTeX\tex\latex\fontaxes\fontaxes.sty
INPUT C:\Users\AmrAbdel-Motaleb\AppData\Local\Programs\MiKTeX\tex\latex\fontaxes\fontaxes.sty
INPUT C:\Users\AmrAbdel-Motaleb\AppData\Local\Programs\MiKTeX\tex\latex\fontaxes\fontaxes.sty
INPUT C:\Users\AmrAbdel-Motaleb\AppData\Local\Programs\MiKTeX\tex\latex\fontaxes\fontaxes.sty
INPUT C:\Users\AmrAbdel-Motaleb\AppData\Local\Programs\MiKTeX\tex\latex\fontaxes\fontaxes.sty
INPUT C:\Users\AmrAbdel-Motaleb\AppData\Local\Programs\MiKTeX\tex\latex\fontaxes\fontaxes.sty
INPUT C:\Users\AmrAbdel-Motaleb\AppData\Local\Programs\MiKTeX\tex\latex\fontaxes\fontaxes.sty
INPUT C:\Users\AmrAbdel-Motaleb\AppData\Local\Programs\MiKTeX\tex\latex\fontaxes\fontaxes.sty
INPUT C:\Users\AmrAbdel-Motaleb\AppData\Local\Programs\MiKTeX\tex\latex\fontaxes\fontaxes.sty
INPUT C:\Users\AmrAbdel-Motaleb\AppData\Local\Programs\MiKTeX\tex\latex\mweights\mweights.sty
INPUT C:\Users\AmrAbdel-Motaleb\AppData\Local\Programs\MiKTeX\tex\latex\cormorantgaramond\ot1cormorantgaramond-lf.fd
INPUT C:\Users\AmrAbdel-Motaleb\AppData\Local\Programs\MiKTeX\tex\latex\cormorantgaramond\ot1cormorantgaramond-lf.fd
INPUT C:\Users\AmrAbdel-Motaleb\AppData\Local\Programs\MiKTeX\tex\latex\cormorantgaramond\ot1cormorantgaramond-lf.fd
INPUT C:\Users\AmrAbdel-Motaleb\AppData\Local\Programs\MiKTeX\tex\latex\cormorantgaramond\ot1cormorantgaramond-lf.fd
INPUT C:\Users\AmrAbdel-Motaleb\AppData\Local\Programs\MiKTeX\fonts\tfm\catharsis\cormorantgaramond\CormorantGaramond-Regular-lf-ot1.tfm
INPUT .\cv.aux
INPUT cv.aux
INPUT cv.aux
OUTPUT cv.aux
INPUT C:\Users\AmrAbdel-Motaleb\AppData\Local\Programs\MiKTeX\tex\context\base\mkii\supp-pdf.mkii
INPUT C:\Users\AmrAbdel-Motaleb\AppData\Local\Programs\MiKTeX\tex\context\base\mkii\supp-pdf.mkii
INPUT C:\Users\AmrAbdel-Motaleb\AppData\Local\Programs\MiKTeX\tex\context\base\mkii\supp-pdf.mkii
INPUT C:\Users\AmrAbdel-Motaleb\AppData\Local\Programs\MiKTeX\tex\context\base\mkii\supp-pdf.mkii
INPUT C:\Users\AmrAbdel-Motaleb\AppData\Local\Programs\MiKTeX\tex\latex\hyperref\nameref.sty
INPUT C:\Users\AmrAbdel-Motaleb\AppData\Local\Programs\MiKTeX\tex\latex\hyperref\nameref.sty
INPUT C:\Users\AmrAbdel-Motaleb\AppData\Local\Programs\MiKTeX\tex\latex\hyperref\nameref.sty
INPUT C:\Users\AmrAbdel-Motaleb\AppData\Local\Programs\MiKTeX\tex\latex\hyperref\nameref.sty
INPUT C:\Users\AmrAbdel-Motaleb\AppData\Local\Programs\MiKTeX\tex\latex\hyperref\nameref.sty
INPUT C:\Users\AmrAbdel-Motaleb\AppData\Local\Programs\MiKTeX\tex\latex\hyperref\nameref.sty
INPUT C:\Users\AmrAbdel-Motaleb\AppData\Local\Programs\MiKTeX\tex\latex\hyperref\nameref.sty
INPUT C:\Users\AmrAbdel-Motaleb\AppData\Local\Programs\MiKTeX\tex\latex\hyperref\nameref.sty
INPUT C:\Users\AmrAbdel-Motaleb\AppData\Local\Programs\MiKTeX\tex\latex\hyperref\nameref.sty
INPUT C:\Users\AmrAbdel-Motaleb\AppData\Local\Programs\MiKTeX\tex\latex\hyperref\nameref.sty
INPUT C:\Users\AmrAbdel-Motaleb\AppData\Local\Programs\MiKTeX\tex\latex\hyperref\nameref.sty
INPUT C:\Users\AmrAbdel-Motaleb\AppData\Local\Programs\MiKTeX\tex\latex\refcount\refcount.sty
INPUT C:\Users\AmrAbdel-Motaleb\AppData\Local\Programs\MiKTeX\tex\latex\refcount\refcount.sty
INPUT C:\Users\AmrAbdel-Motaleb\AppData\Local\Programs\MiKTeX\tex\latex\refcount\refcount.sty
INPUT C:\Users\AmrAbdel-Motaleb\AppData\Local\Programs\MiKTeX\tex\latex\refcount\refcount.sty
INPUT C:\Users\AmrAbdel-Motaleb\AppData\Local\Programs\MiKTeX\tex\latex\refcount\refcount.sty
INPUT C:\Users\AmrAbdel-Motaleb\AppData\Local\Programs\MiKTeX\tex\latex\refcount\refcount.sty
INPUT C:\Users\AmrAbdel-Motaleb\AppData\Local\Programs\MiKTeX\tex\latex\refcount\refcount.sty
INPUT C:\Users\AmrAbdel-Motaleb\AppData\Local\Programs\MiKTeX\tex\latex\refcount\refcount.sty
INPUT C:\Users\AmrAbdel-Motaleb\AppData\Local\Programs\MiKTeX\tex\latex\refcount\refcount.sty
INPUT C:\Users\AmrAbdel-Motaleb\AppData\Local\Programs\MiKTeX\tex\latex\refcount\refcount.sty
INPUT C:\Users\AmrAbdel-Motaleb\AppData\Local\Programs\MiKTeX\tex\latex\refcount\refcount.sty
INPUT C:\Users\AmrAbdel-Motaleb\AppData\Local\Programs\MiKTeX\tex\generic\ltxcmds\ltxcmds.sty
INPUT C:\Users\AmrAbdel-Motaleb\AppData\Local\Programs\MiKTeX\tex\generic\infwarerr\infwarerr.sty
INPUT C:\Users\AmrAbdel-Motaleb\AppData\Local\Programs\MiKTeX\tex\generic\gettitlestring\gettitlestring.sty
INPUT C:\Users\AmrAbdel-Motaleb\AppData\Local\Programs\MiKTeX\tex\generic\gettitlestring\gettitlestring.sty
INPUT C:\Users\AmrAbdel-Motaleb\AppData\Local\Programs\MiKTeX\tex\generic\gettitlestring\gettitlestring.sty
INPUT C:\Users\AmrAbdel-Motaleb\AppData\Local\Programs\MiKTeX\tex\generic\gettitlestring\gettitlestring.sty
INPUT C:\Users\AmrAbdel-Motaleb\AppData\Local\Programs\MiKTeX\tex\generic\gettitlestring\gettitlestring.sty
INPUT C:\Users\AmrAbdel-Motaleb\AppData\Local\Programs\MiKTeX\tex\generic\gettitlestring\gettitlestring.sty
INPUT C:\Users\AmrAbdel-Motaleb\AppData\Local\Programs\MiKTeX\tex\generic\gettitlestring\gettitlestring.sty
INPUT C:\Users\AmrAbdel-Motaleb\AppData\Local\Programs\MiKTeX\tex\generic\gettitlestring\gettitlestring.sty
INPUT C:\Users\AmrAbdel-Motaleb\AppData\Local\Programs\MiKTeX\tex\generic\gettitlestring\gettitlestring.sty
INPUT C:\Users\AmrAbdel-Motaleb\AppData\Local\Programs\MiKTeX\tex\generic\gettitlestring\gettitlestring.sty
INPUT C:\Users\AmrAbdel-Motaleb\AppData\Local\Programs\MiKTeX\tex\generic\gettitlestring\gettitlestring.sty
INPUT C:\Users\AmrAbdel-Motaleb\AppData\Local\Programs\MiKTeX\tex\latex\kvoptions\kvoptions.sty
INPUT C:\Users\AmrAbdel-Motaleb\AppData\Local\Programs\MiKTeX\tex\generic\ltxcmds\ltxcmds.sty
INPUT .\cv.out
INPUT cv.out
INPUT .\cv.out
INPUT cv.out
INPUT .\cv.out
INPUT cv.out
INPUT .\cv.out
INPUT cv.out
OUTPUT cv.pdf
INPUT .\cv.out
INPUT .\cv.out
OUTPUT cv.out
INPUT C:\Users\AmrAbdel-Motaleb\AppData\Local\Programs\MiKTeX\fonts\tfm\public\cm\cmr8.tfm
INPUT C:\Users\AmrAbdel-Motaleb\AppData\Local\Programs\MiKTeX\fonts\tfm\public\cm\cmr6.tfm
INPUT C:\Users\AmrAbdel-Motaleb\AppData\Local\Programs\MiKTeX\fonts\tfm\public\cm\cmmi10.tfm
INPUT C:\Users\AmrAbdel-Motaleb\AppData\Local\Programs\MiKTeX\fonts\tfm\public\cm\cmmi8.tfm
INPUT C:\Users\AmrAbdel-Motaleb\AppData\Local\Programs\MiKTeX\fonts\tfm\public\cm\cmmi6.tfm
INPUT C:\Users\AmrAbdel-Motaleb\AppData\Local\Programs\MiKTeX\fonts\tfm\public\cm\cmsy10.tfm
INPUT C:\Users\AmrAbdel-Motaleb\AppData\Local\Programs\MiKTeX\fonts\tfm\public\cm\cmsy8.tfm
INPUT C:\Users\AmrAbdel-Motaleb\AppData\Local\Programs\MiKTeX\fonts\tfm\public\cm\cmsy6.tfm
INPUT C:\Users\AmrAbdel-Motaleb\AppData\Local\Programs\MiKTeX\tex\latex\base\ulasy.fd
INPUT C:\Users\AmrAbdel-Motaleb\AppData\Local\Programs\MiKTeX\tex\latex\base\ulasy.fd
INPUT C:\Users\AmrAbdel-Motaleb\AppData\Local\Programs\MiKTeX\tex\latex\base\ulasy.fd
INPUT C:\Users\AmrAbdel-Motaleb\AppData\Local\Programs\MiKTeX\tex\latex\base\ulasy.fd
INPUT C:\Users\AmrAbdel-Motaleb\AppData\Local\Programs\MiKTeX\fonts\tfm\public\latex-fonts\lasy10.tfm
INPUT C:\Users\AmrAbdel-Motaleb\AppData\Local\Programs\MiKTeX\fonts\tfm\public\latex-fonts\lasy8.tfm
INPUT C:\Users\AmrAbdel-Motaleb\AppData\Local\Programs\MiKTeX\fonts\tfm\public\latex-fonts\lasy6.tfm
INPUT C:\Users\AmrAbdel-Motaleb\AppData\Local\Programs\MiKTeX\fonts\tfm\catharsis\cormorantgaramond\CormorantGaramond-Bold-lf-ot1.tfm
INPUT C:\Users\AmrAbdel-Motaleb\AppData\Local\Programs\MiKTeX\fonts\tfm\catharsis\cormorantgaramond\CormorantGaramond-Bold-lf-ot1.tfm
INPUT C:\Users\AmrAbdel-Motaleb\AppData\Local\Programs\MiKTeX\fonts\tfm\catharsis\cormorantgaramond\CormorantGaramond-Regular-lf-ot1.tfm
INPUT C:\Users\AmrAbdel-Motaleb\AppData\Local\Programs\MiKTeX\fonts\tfm\catharsis\cormorantgaramond\CormorantGaramond-Regular-lf-sc-ot1.tfm
INPUT C:\Users\AmrAbdel-Motaleb\AppData\Local\Programs\MiKTeX\fonts\tfm\catharsis\cormorantgaramond\CormorantGaramond-Regular-lf-ot1.tfm
INPUT C:\Users\AmrAbdel-Motaleb\AppData\Local\Programs\MiKTeX\tex\latex\fontawesome5\ufontawesomefree2.fd
INPUT C:\Users\AmrAbdel-Motaleb\AppData\Local\Programs\MiKTeX\tex\latex\fontawesome5\ufontawesomefree2.fd
INPUT C:\Users\AmrAbdel-Motaleb\AppData\Local\Programs\MiKTeX\tex\latex\fontawesome5\ufontawesomefree2.fd
INPUT C:\Users\AmrAbdel-Motaleb\AppData\Local\Programs\MiKTeX\tex\latex\fontawesome5\ufontawesomefree2.fd
INPUT C:\Users\AmrAbdel-Motaleb\AppData\Local\Programs\MiKTeX\fonts\tfm\public\fontawesome5\fa5free2solid.tfm
INPUT C:\Users\AmrAbdel-Motaleb\AppData\Local\Programs\MiKTeX\tex\latex\fontawesome5\ufontawesomefree1.fd
INPUT C:\Users\AmrAbdel-Motaleb\AppData\Local\Programs\MiKTeX\tex\latex\fontawesome5\ufontawesomefree1.fd
INPUT C:\Users\AmrAbdel-Motaleb\AppData\Local\Programs\MiKTeX\tex\latex\fontawesome5\ufontawesomefree1.fd
INPUT C:\Users\AmrAbdel-Motaleb\AppData\Local\Programs\MiKTeX\tex\latex\fontawesome5\ufontawesomefree1.fd
INPUT C:\Users\AmrAbdel-Motaleb\AppData\Local\Programs\MiKTeX\fonts\tfm\public\fontawesome5\fa5free1solid.tfm
INPUT C:\Users\AmrAbdel-Motaleb\AppData\Local\Programs\MiKTeX\fonts\tfm\public\latex-fonts\lasy10.tfm
INPUT C:\Users\AmrAbdel-Motaleb\AppData\Local\Programs\MiKTeX\fonts\tfm\public\latex-fonts\lasy7.tfm
INPUT C:\Users\AmrAbdel-Motaleb\AppData\Local\Programs\MiKTeX\fonts\tfm\public\latex-fonts\lasy5.tfm
INPUT C:\Users\AmrAbdel-Motaleb\AppData\Local\Programs\MiKTeX\tex\latex\fontawesome5\ufontawesomebrands0.fd
INPUT C:\Users\AmrAbdel-Motaleb\AppData\Local\Programs\MiKTeX\tex\latex\fontawesome5\ufontawesomebrands0.fd
INPUT C:\Users\AmrAbdel-Motaleb\AppData\Local\Programs\MiKTeX\tex\latex\fontawesome5\ufontawesomebrands0.fd
INPUT C:\Users\AmrAbdel-Motaleb\AppData\Local\Programs\MiKTeX\tex\latex\fontawesome5\ufontawesomebrands0.fd
INPUT C:\Users\AmrAbdel-Motaleb\AppData\Local\Programs\MiKTeX\fonts\tfm\public\fontawesome5\fa5brands0.tfm
INPUT C:\Users\AmrAbdel-Motaleb\AppData\Local\Programs\MiKTeX\fonts\tfm\catharsis\cormorantgaramond\CormorantGaramond-Regular-lf-sc-ot1.tfm
INPUT C:\Users\AmrAbdel-Motaleb\AppData\Local\Programs\MiKTeX\fonts\tfm\catharsis\cormorantgaramond\CormorantGaramond-Regular-lf-sc-ot1.tfm
INPUT C:\Users\AmrAbdel-Motaleb\AppData\Local\Programs\MiKTeX\fonts\tfm\catharsis\cormorantgaramond\CormorantGaramond-Bold-lf-sc-ot1.tfm
INPUT C:\Users\AmrAbdel-Motaleb\AppData\Local\Programs\MiKTeX\fonts\tfm\catharsis\cormorantgaramond\CormorantGaramond-Bold-lf-ot1.tfm
INPUT C:\Users\AmrAbdel-Motaleb\AppData\Local\Programs\MiKTeX\fonts\tfm\catharsis\cormorantgaramond\CormorantGaramond-Italic-lf-ot1.tfm
INPUT C:\Users\AmrAbdel-Motaleb\AppData\Local\Programs\MiKTeX\fonts\tfm\catharsis\cormorantgaramond\CormorantGaramond-Italic-lf-ot1.tfm
INPUT C:\Users\AmrAbdel-Motaleb\AppData\Local\Programs\MiKTeX\fonts\tfm\catharsis\cormorantgaramond\CormorantGaramond-Regular-lf-ot1.tfm
INPUT C:\Users\AmrAbdel-Motaleb\AppData\Local\MiKTeX\pdftex\config\pdftex.map
INPUT C:\Users\AmrAbdel-Motaleb\AppData\Local\Programs\MiKTeX\fonts\vf\catharsis\cormorantgaramond\CormorantGaramond-Regular-lf-sc-ot1.vf
INPUT C:\Users\AmrAbdel-Motaleb\AppData\Local\Programs\MiKTeX\fonts\tfm\catharsis\cormorantgaramond\CormorantGaramond-Regular-lf-sc-ot1--base.tfm
INPUT C:\Users\AmrAbdel-Motaleb\AppData\Local\Programs\MiKTeX\fonts\vf\catharsis\cormorantgaramond\CormorantGaramond-Bold-lf-sc-ot1.vf
INPUT C:\Users\AmrAbdel-Motaleb\AppData\Local\Programs\MiKTeX\fonts\tfm\catharsis\cormorantgaramond\CormorantGaramond-Bold-lf-sc-ot1--base.tfm
INPUT cv.aux
INPUT .\cv.out
INPUT .\cv.out
INPUT C:\Users\AmrAbdel-Motaleb\AppData\Local\Programs\MiKTeX\fonts\enc\dvips\cormorantgaramond\cgrm_k54atz.enc
INPUT C:\Users\AmrAbdel-Motaleb\AppData\Local\Programs\MiKTeX\fonts\enc\dvips\cormorantgaramond\cgrm_ctw2ju.enc
INPUT C:\Users\AmrAbdel-Motaleb\AppData\Local\Programs\MiKTeX\fonts\enc\dvips\fontawesome5\fa5brands0.enc
INPUT C:\Users\AmrAbdel-Motaleb\AppData\Local\Programs\MiKTeX\fonts\enc\dvips\fontawesome5\fa5free1.enc
INPUT C:\Users\AmrAbdel-Motaleb\AppData\Local\Programs\MiKTeX\fonts\enc\dvips\fontawesome5\fa5free2.enc
INPUT C:\Users\AmrAbdel-Motaleb\AppData\Local\Programs\MiKTeX\fonts\enc\dvips\cormorantgaramond\cgrm_usix3v.enc
INPUT C:\Users\AmrAbdel-Motaleb\AppData\Local\Programs\MiKTeX\fonts\type1\catharsis\cormorantgaramond\CormorantGaramond-Bold.pfb
INPUT C:\Users\AmrAbdel-Motaleb\AppData\Local\Programs\MiKTeX\fonts\type1\catharsis\cormorantgaramond\CormorantGaramond-Bold.pfb
INPUT C:\Users\AmrAbdel-Motaleb\AppData\Local\Programs\MiKTeX\fonts\type1\catharsis\cormorantgaramond\CormorantGaramond-Italic.pfb
INPUT C:\Users\AmrAbdel-Motaleb\AppData\Local\Programs\MiKTeX\fonts\type1\catharsis\cormorantgaramond\CormorantGaramond-Italic.pfb
INPUT C:\Users\AmrAbdel-Motaleb\AppData\Local\Programs\MiKTeX\fonts\type1\catharsis\cormorantgaramond\CormorantGaramond-Regular.pfb
INPUT C:\Users\AmrAbdel-Motaleb\AppData\Local\Programs\MiKTeX\fonts\type1\catharsis\cormorantgaramond\CormorantGaramond-Regular.pfb
INPUT C:\Users\AmrAbdel-Motaleb\AppData\Local\Programs\MiKTeX\fonts\type1\public\fontawesome5\FontAwesome5Brands-Regular.pfb
INPUT C:\Users\AmrAbdel-Motaleb\AppData\Local\Programs\MiKTeX\fonts\type1\public\fontawesome5\FontAwesome5Brands-Regular.pfb
INPUT C:\Users\AmrAbdel-Motaleb\AppData\Local\Programs\MiKTeX\fonts\type1\public\fontawesome5\FontAwesome5Free-Solid.pfb
INPUT C:\Users\AmrAbdel-Motaleb\AppData\Local\Programs\MiKTeX\fonts\type1\public\fontawesome5\FontAwesome5Free-Solid.pfb
INPUT C:\Users\AmrAbdel-Motaleb\AppData\Local\Programs\MiKTeX\fonts\type1\public\amsfonts\cm\cmsy10.pfb
INPUT C:\Users\AmrAbdel-Motaleb\AppData\Local\Programs\MiKTeX\fonts\type1\public\amsfonts\cm\cmsy10.pfb
INPUT C:\Users\AmrAbdel-Motaleb\AppData\Local\Programs\MiKTeX\fonts\type1\public\amsfonts\cm\cmsy6.pfb
INPUT C:\Users\AmrAbdel-Motaleb\AppData\Local\Programs\MiKTeX\fonts\type1\public\amsfonts\cm\cmsy6.pfb
